date	size'/'remotesize	flags(request:Update,Range state:File response:Modified,Chunked,gZipped)	statuscode	status ('servermsg')	MIME	Etag|Date	URL	localfile	(from URL)
09:24:20	2630675/2630675	------	200	untouched ('OK')	text/html	date:Fri,%2019%20Oct%202018%2007:23:48%20GMT	https://www.facebook.com/Kevin-Mitnick-30858851362/	www.facebook.com/Kevin-Mitnick-30858851362/index.html	(from )
09:24:20	529/529	---MCZ	-1	error ('Open%20error%20when%20decompressing%20(can%20not%20create%20temporary%20file%20/tmp0.z)')	text/plain	date:Fri,%2019%20Oct%202018%2007:24:20%20GMT	https://www.facebook.com/robots.txt		(from )
09:24:21	2628382/2628382	------	200	untouched ('OK')	text/html	date:Fri,%2019%20Oct%202018%2007:23:50%20GMT	https://www.facebook.com/Kevin-Mitnick-30858851362/?_fb_noscript=1	www.facebook.com/Kevin-Mitnick-30858851362/index4964.html	(from https://www.facebook.com/Kevin-Mitnick-30858851362/)
09:24:21	1030/1030	------	200	untouched ('')	text/javascript	date:Fri,%2019%20Oct%202018%2007:23:49%20GMT	https://www.facebook.com/plugins/page/oembed.json/?url=https%3A%2F%2Fwww.facebook.com%2FKevin-Mitnick-30858851362%2F	www.facebook.com/plugins/page/oembed.json/index62b2.html	(from https://www.facebook.com/Kevin-Mitnick-30858851362/)
09:24:21	1150/1150	------	200	untouched ('')	image/x-icon	date:Mon,%2001%20Jan%202001%2008:00:00%20GMT	https://static.xx.fbcdn.net/rsrc.php/yz/r/KFyVIAWzntM.ico	static.xx.fbcdn.net/rsrc.php/yz/r/KFyVIAWzntM.ico	(from https://www.facebook.com/Kevin-Mitnick-30858851362/)
09:24:21	172670/172670	------	200	untouched ('OK')	text/css	date:Mon,%2001%20Jan%202001%2008:00:00%20GMT	https://static.xx.fbcdn.net/rsrc.php/v3/y0/l/0,cross/kmsaed5ICJn.css	static.xx.fbcdn.net/rsrc.php/v3/y0/l/0,cross/kmsaed5ICJn.css	(from https://www.facebook.com/Kevin-Mitnick-30858851362/)
09:24:21	25153/25153	------	200	untouched ('OK')	text/css	date:Mon,%2001%20Jan%202001%2008:00:00%20GMT	https://static.xx.fbcdn.net/rsrc.php/v3/y0/l/0,cross/WiXketUTI8h.css	static.xx.fbcdn.net/rsrc.php/v3/y0/l/0,cross/WiXketUTI8h.css	(from https://www.facebook.com/Kevin-Mitnick-30858851362/)
09:24:21	20580/20580	------	200	untouched ('OK')	text/css	date:Mon,%2001%20Jan%202001%2008:00:00%20GMT	https://static.xx.fbcdn.net/rsrc.php/v3/yC/l/0,cross/UesBAAAToVf.css	static.xx.fbcdn.net/rsrc.php/v3/yC/l/0,cross/UesBAAAToVf.css	(from https://www.facebook.com/Kevin-Mitnick-30858851362/)
09:24:21	245721/245721	------	200	untouched ('OK')	text/css	date:Mon,%2001%20Jan%202001%2008:00:00%20GMT	https://static.xx.fbcdn.net/rsrc.php/v3/yw/l/0,cross/T8CvvoUz17P.css	static.xx.fbcdn.net/rsrc.php/v3/yw/l/0,cross/T8CvvoUz17P.css	(from https://www.facebook.com/Kevin-Mitnick-30858851362/)
09:24:21	38097/38097	------	200	untouched ('OK')	text/css	date:Mon,%2001%20Jan%202001%2008:00:00%20GMT	https://static.xx.fbcdn.net/rsrc.php/v3/y1/l/0,cross/oD1tn6i5zlq.css	static.xx.fbcdn.net/rsrc.php/v3/y1/l/0,cross/oD1tn6i5zlq.css	(from https://www.facebook.com/Kevin-Mitnick-30858851362/)
09:24:21	16568/16568	------	200	untouched ('OK')	text/css	date:Mon,%2001%20Jan%202001%2008:00:00%20GMT	https://static.xx.fbcdn.net/rsrc.php/v3/yb/l/0,cross/2Y2IeUad06i.css	static.xx.fbcdn.net/rsrc.php/v3/yb/l/0,cross/2Y2IeUad06i.css	(from https://www.facebook.com/Kevin-Mitnick-30858851362/)
09:24:21	46384/46384	------	200	untouched ('OK')	text/css	date:Mon,%2001%20Jan%202001%2008:00:00%20GMT	https://static.xx.fbcdn.net/rsrc.php/v3/yo/l/0,cross/h-0MAUGfPwe.css	static.xx.fbcdn.net/rsrc.php/v3/yo/l/0,cross/h-0MAUGfPwe.css	(from https://www.facebook.com/Kevin-Mitnick-30858851362/)
09:24:21	21031/21031	------	200	untouched ('OK')	text/css	date:Mon,%2001%20Jan%202001%2008:00:00%20GMT	https://static.xx.fbcdn.net/rsrc.php/v3/yq/l/0,cross/uAbS9GrG5qx.css	static.xx.fbcdn.net/rsrc.php/v3/yq/l/0,cross/uAbS9GrG5qx.css	(from https://www.facebook.com/Kevin-Mitnick-30858851362/)
09:24:21	56044/56044	------	200	untouched ('OK')	text/css	date:Mon,%2001%20Jan%202001%2008:00:00%20GMT	https://static.xx.fbcdn.net/rsrc.php/v3/y0/l/0,cross/Euoh0rvDpMa.css	static.xx.fbcdn.net/rsrc.php/v3/y0/l/0,cross/Euoh0rvDpMa.css	(from https://www.facebook.com/Kevin-Mitnick-30858851362/)
09:24:21	41672/41672	---M-Z	200	added ('OK')	text/css	date:Mon,%2001%20Jan%202001%2008:00:00%20GMT	https://static.xx.fbcdn.net/rsrc.php/v3/yX/l/0,cross/hHesBWPY1sc.css	static.xx.fbcdn.net/rsrc.php/v3/yX/l/0,cross/hHesBWPY1sc.css	(from https://www.facebook.com/Kevin-Mitnick-30858851362/)
09:24:22	346/346	---M-Z	200	added ('OK')	text/css	date:Mon,%2001%20Jan%202001%2008:00:00%20GMT	https://static.xx.fbcdn.net/rsrc.php/v3/yb/l/0,cross/I8ZobqJvlRO.css	static.xx.fbcdn.net/rsrc.php/v3/yb/l/0,cross/I8ZobqJvlRO.css	(from https://www.facebook.com/Kevin-Mitnick-30858851362/)
09:24:23	12759/12759	------	200	untouched ('OK')	text/css	date:Mon,%2001%20Jan%202001%2008:00:00%20GMT	https://static.xx.fbcdn.net/rsrc.php/v3/yZ/l/0,cross/YxYUv_DNCNq.css	static.xx.fbcdn.net/rsrc.php/v3/yZ/l/0,cross/YxYUv_DNCNq.css	(from https://www.facebook.com/Kevin-Mitnick-30858851362/)
09:24:23	12454/12454	------	200	untouched ('OK')	text/css	date:Mon,%2001%20Jan%202001%2008:00:00%20GMT	https://static.xx.fbcdn.net/rsrc.php/v3/y7/l/0,cross/TEJ3w0LvHkG.css	static.xx.fbcdn.net/rsrc.php/v3/y7/l/0,cross/TEJ3w0LvHkG.css	(from https://www.facebook.com/Kevin-Mitnick-30858851362/)
09:24:23	12651/12651	------	200	untouched ('OK')	text/css	date:Mon,%2001%20Jan%202001%2008:00:00%20GMT	https://static.xx.fbcdn.net/rsrc.php/v3/ya/l/0,cross/0T1yEkje2-g.css	static.xx.fbcdn.net/rsrc.php/v3/ya/l/0,cross/0T1yEkje2-g.css	(from https://www.facebook.com/Kevin-Mitnick-30858851362/)
09:24:23	189716/189716	------	200	untouched ('OK')	text/css	date:Mon,%2001%20Jan%202001%2008:00:00%20GMT	https://static.xx.fbcdn.net/rsrc.php/v3/yY/l/0,cross/JcAAsdTJHV4.css	static.xx.fbcdn.net/rsrc.php/v3/yY/l/0,cross/JcAAsdTJHV4.css	(from https://www.facebook.com/Kevin-Mitnick-30858851362/)
09:24:23	8767/8767	---M-Z	200	added ('OK')	text/css	date:Mon,%2001%20Jan%202001%2008:00:00%20GMT	https://static.xx.fbcdn.net/rsrc.php/v3/yn/l/0,cross/R7q7eLOxzyE.css	static.xx.fbcdn.net/rsrc.php/v3/yn/l/0,cross/R7q7eLOxzyE.css	(from https://www.facebook.com/Kevin-Mitnick-30858851362/)
09:24:24	17946/17946	------	200	untouched ('OK')	text/css	date:Mon,%2001%20Jan%202001%2008:00:00%20GMT	https://static.xx.fbcdn.net/rsrc.php/v3/yR/l/0,cross/AThFCPAsYmO.css	static.xx.fbcdn.net/rsrc.php/v3/yR/l/0,cross/AThFCPAsYmO.css	(from https://www.facebook.com/Kevin-Mitnick-30858851362/)
09:24:24	14639/14639	------	200	untouched ('OK')	text/css	date:Mon,%2001%20Jan%202001%2008:00:00%20GMT	https://static.xx.fbcdn.net/rsrc.php/v3/yT/l/0,cross/WDs0vaj9wTG.css	static.xx.fbcdn.net/rsrc.php/v3/yT/l/0,cross/WDs0vaj9wTG.css	(from https://www.facebook.com/Kevin-Mitnick-30858851362/)
09:24:24	81147/81147	------	200	untouched ('OK')	text/css	date:Mon,%2001%20Jan%202001%2008:00:00%20GMT	https://static.xx.fbcdn.net/rsrc.php/v3/y9/l/0,cross/Lb8o3hHkpyX.css	static.xx.fbcdn.net/rsrc.php/v3/y9/l/0,cross/Lb8o3hHkpyX.css	(from https://www.facebook.com/Kevin-Mitnick-30858851362/)
09:24:24	9583/9583	------	200	untouched ('OK')	text/css	date:Mon,%2001%20Jan%202001%2008:00:00%20GMT	https://static.xx.fbcdn.net/rsrc.php/v3/yv/l/0,cross/hRRONVUTl8L.css	static.xx.fbcdn.net/rsrc.php/v3/yv/l/0,cross/hRRONVUTl8L.css	(from https://www.facebook.com/Kevin-Mitnick-30858851362/)
09:24:24	2956/2956	---M-Z	200	added ('OK')	text/css	date:Mon,%2001%20Jan%202001%2008:00:00%20GMT	https://static.xx.fbcdn.net/rsrc.php/v3/yv/l/0,cross/BwM2Gk1vny7.css	static.xx.fbcdn.net/rsrc.php/v3/yv/l/0,cross/BwM2Gk1vny7.css	(from https://www.facebook.com/Kevin-Mitnick-30858851362/)
09:24:25	23998/23998	------	200	untouched ('OK')	text/css	date:Mon,%2001%20Jan%202001%2008:00:00%20GMT	https://static.xx.fbcdn.net/rsrc.php/v3/y_/l/0,cross/S_B6uDjoBJA.css	static.xx.fbcdn.net/rsrc.php/v3/y_/l/0,cross/S_B6uDjoBJA.css	(from https://www.facebook.com/Kevin-Mitnick-30858851362/)
09:24:25	9149/9149	------	200	untouched ('OK')	text/css	date:Mon,%2001%20Jan%202001%2008:00:00%20GMT	https://static.xx.fbcdn.net/rsrc.php/v3/yN/l/0,cross/yvG4cFNGCsj.css	static.xx.fbcdn.net/rsrc.php/v3/yN/l/0,cross/yvG4cFNGCsj.css	(from https://www.facebook.com/Kevin-Mitnick-30858851362/)
09:24:25	37345/37345	---M-Z	200	added ('OK')	text/css	date:Mon,%2001%20Jan%202001%2008:00:00%20GMT	https://static.xx.fbcdn.net/rsrc.php/v3/yD/l/0,cross/fuJieExsj3p.css	static.xx.fbcdn.net/rsrc.php/v3/yD/l/0,cross/fuJieExsj3p.css	(from https://www.facebook.com/Kevin-Mitnick-30858851362/)
09:24:26	9186/9186	---M-Z	200	added ('OK')	text/css	date:Mon,%2001%20Jan%202001%2008:00:00%20GMT	https://static.xx.fbcdn.net/rsrc.php/v3/y2/l/0,cross/nuguR7IXIOm.css	static.xx.fbcdn.net/rsrc.php/v3/y2/l/0,cross/nuguR7IXIOm.css	(from https://www.facebook.com/Kevin-Mitnick-30858851362/)
09:24:27	24177/24177	---M-Z	200	added ('OK')	text/css	date:Mon,%2001%20Jan%202001%2008:00:00%20GMT	https://static.xx.fbcdn.net/rsrc.php/v3/y8/l/0,cross/YEuns9RYP-E.css	static.xx.fbcdn.net/rsrc.php/v3/y8/l/0,cross/YEuns9RYP-E.css	(from https://www.facebook.com/Kevin-Mitnick-30858851362/)
09:24:28	12578/12578	---M-Z	200	added ('OK')	text/css	date:Mon,%2001%20Jan%202001%2008:00:00%20GMT	https://static.xx.fbcdn.net/rsrc.php/v3/yH/l/0,cross/3UelggaBj-t.css	static.xx.fbcdn.net/rsrc.php/v3/yH/l/0,cross/3UelggaBj-t.css	(from https://www.facebook.com/Kevin-Mitnick-30858851362/)
09:24:29	21009/21009	---M-Z	200	added ('OK')	text/css	date:Mon,%2001%20Jan%202001%2008:00:00%20GMT	https://static.xx.fbcdn.net/rsrc.php/v3/yW/l/0,cross/UR2fBnLeyqX.css	static.xx.fbcdn.net/rsrc.php/v3/yW/l/0,cross/UR2fBnLeyqX.css	(from https://www.facebook.com/Kevin-Mitnick-30858851362/)
09:24:30	5189/5189	---M-Z	200	added ('OK')	text/css	date:Mon,%2001%20Jan%202001%2008:00:00%20GMT	https://static.xx.fbcdn.net/rsrc.php/v3/yh/l/0,cross/NpG19acbVoE.css	static.xx.fbcdn.net/rsrc.php/v3/yh/l/0,cross/NpG19acbVoE.css	(from https://www.facebook.com/Kevin-Mitnick-30858851362/)
09:24:31	8699/8699	---M-Z	200	added ('OK')	text/css	date:Mon,%2001%20Jan%202001%2008:00:00%20GMT	https://static.xx.fbcdn.net/rsrc.php/v3/yJ/l/0,cross/KrTqvIHgy10.css	static.xx.fbcdn.net/rsrc.php/v3/yJ/l/0,cross/KrTqvIHgy10.css	(from https://www.facebook.com/Kevin-Mitnick-30858851362/)
09:24:32	4555/4555	---M-Z	200	added ('OK')	text/css	date:Mon,%2001%20Jan%202001%2008:00:00%20GMT	https://static.xx.fbcdn.net/rsrc.php/v3/yL/l/0,cross/-Juy1AIbodF.css	static.xx.fbcdn.net/rsrc.php/v3/yL/l/0,cross/-Juy1AIbodF.css	(from https://www.facebook.com/Kevin-Mitnick-30858851362/)
09:24:33	6871/6871	---M-Z	200	added ('OK')	text/css	date:Mon,%2001%20Jan%202001%2008:00:00%20GMT	https://static.xx.fbcdn.net/rsrc.php/v3/yA/l/0,cross/46kjAfTq5fs.css	static.xx.fbcdn.net/rsrc.php/v3/yA/l/0,cross/46kjAfTq5fs.css	(from https://www.facebook.com/Kevin-Mitnick-30858851362/)
09:24:34	885/885	---M-Z	200	added ('OK')	text/css	date:Mon,%2001%20Jan%202001%2008:00:00%20GMT	https://static.xx.fbcdn.net/rsrc.php/v3/y8/l/0,cross/pQ_0J1zMz4r.css	static.xx.fbcdn.net/rsrc.php/v3/y8/l/0,cross/pQ_0J1zMz4r.css	(from https://www.facebook.com/Kevin-Mitnick-30858851362/)
09:24:35	1019/1019	---M-Z	200	added ('OK')	text/css	date:Mon,%2001%20Jan%202001%2008:00:00%20GMT	https://static.xx.fbcdn.net/rsrc.php/v3/y6/l/0,cross/Nt200aimBsb.css	static.xx.fbcdn.net/rsrc.php/v3/y6/l/0,cross/Nt200aimBsb.css	(from https://www.facebook.com/Kevin-Mitnick-30858851362/)
09:24:36	6725/6725	---M-Z	200	added ('OK')	text/css	date:Mon,%2001%20Jan%202001%2008:00:00%20GMT	https://static.xx.fbcdn.net/rsrc.php/v3/y8/l/0,cross/sC3ZVvacs0O.css	static.xx.fbcdn.net/rsrc.php/v3/y8/l/0,cross/sC3ZVvacs0O.css	(from https://www.facebook.com/Kevin-Mitnick-30858851362/)
09:24:37	7956/7956	---M-Z	200	added ('OK')	text/css	date:Mon,%2001%20Jan%202001%2008:00:00%20GMT	https://static.xx.fbcdn.net/rsrc.php/v3/yw/l/0,cross/X1lI_C7wuXs.css	static.xx.fbcdn.net/rsrc.php/v3/yw/l/0,cross/X1lI_C7wuXs.css	(from https://www.facebook.com/Kevin-Mitnick-30858851362/)
09:24:38	18948/18948	---M-Z	200	added ('OK')	text/css	date:Mon,%2001%20Jan%202001%2008:00:00%20GMT	https://static.xx.fbcdn.net/rsrc.php/v3/yj/l/0,cross/eYYcL-R3YDD.css	static.xx.fbcdn.net/rsrc.php/v3/yj/l/0,cross/eYYcL-R3YDD.css	(from https://www.facebook.com/Kevin-Mitnick-30858851362/)
09:24:39	28622/28622	---M-Z	200	added ('OK')	text/css	date:Mon,%2001%20Jan%202001%2008:00:00%20GMT	https://static.xx.fbcdn.net/rsrc.php/v3/yc/l/0,cross/E34F1Jik0F8.css	static.xx.fbcdn.net/rsrc.php/v3/yc/l/0,cross/E34F1Jik0F8.css	(from https://www.facebook.com/Kevin-Mitnick-30858851362/)
09:24:41	311561/311561	---M-Z	200	added ('OK')	application/x-javascript	date:Mon,%2001%20Jan%202001%2008:00:00%20GMT	https://static.xx.fbcdn.net/rsrc.php/v3/yl/r/yeLhlKrAIjX.js	static.xx.fbcdn.net/rsrc.php/v3/yl/r/yeLhlKrAIjX.js	(from https://www.facebook.com/Kevin-Mitnick-30858851362/)
09:24:41	0/0	---M--	302	error ('Found')	text/html	date:Fri,%2019%20Oct%202018%2007:24:41%20GMT	https://www.facebook.com/recover/initiate?lwv=110&ars=royal_blue_bar	www.facebook.com/recover/initiate.28bcdb.delayed	(from https://www.facebook.com/Kevin-Mitnick-30858851362/)
09:24:41	522987/522987	---MCZ	200	added ('OK')	text/html	date:Fri,%2019%20Oct%202018%2007:24:41%20GMT	https://www.facebook.com/	www.facebook.com/index.html	(from https://www.facebook.com/Kevin-Mitnick-30858851362/)
09:24:43	0/0	---M--	301	error ('Moved%20Permanently')	text/html	date:Fri,%2019%20Oct%202018%2007:24:43%20GMT	http://schema.org/Organization	schema.org/Organization.2a.delayed	(from https://www.facebook.com/Kevin-Mitnick-30858851362/)
09:24:43	489900/489900	---MCZ	200	added ('OK')	text/html	date:Fri,%2019%20Oct%202018%2007:24:42%20GMT	https://www.facebook.com/login/identify?ctx=recover&lwv=110&ars=royal_blue_bar	www.facebook.com/login/identifyc4d7.html	(from https://www.facebook.com/Kevin-Mitnick-30858851362/)
09:24:45	101738/101738	---M-Z	200	added ('OK')	text/html	etag:1367ec40ce3a012cb64279602a4dad9f	https://schema.org/Organization	schema.org/Organization.html	(from https://www.facebook.com/Kevin-Mitnick-30858851362/)
09:24:45	235/235	---M--	200	added ('OK')	image/png	date:Mon,%2001%20Jan%202001%2008:00:00%20GMT	https://static.xx.fbcdn.net/rsrc.php/v3/yJ/r/yLtEhZl0QOJ.png	static.xx.fbcdn.net/rsrc.php/v3/yJ/r/yLtEhZl0QOJ.png	(from https://www.facebook.com/Kevin-Mitnick-30858851362/)
09:24:47	2557922/2557922	---MCZ	200	added ('OK')	text/html	date:Fri,%2019%20Oct%202018%2007:24:46%20GMT	https://www.facebook.com/Kevin-Mitnick-30858851362/about/?ref=page_internal	www.facebook.com/Kevin-Mitnick-30858851362/about/index76a2.html	(from https://www.facebook.com/Kevin-Mitnick-30858851362/)
09:24:47	2628722/2628722	---MCZ	200	added ('OK')	text/html	date:Fri,%2019%20Oct%202018%2007:24:46%20GMT	https://www.facebook.com/Kevin-Mitnick-30858851362/?ref=page_internal	www.facebook.com/Kevin-Mitnick-30858851362/index76a2.html	(from https://www.facebook.com/Kevin-Mitnick-30858851362/)
09:24:47	2554186/2554186	---MCZ	200	added ('OK')	text/html	date:Fri,%2019%20Oct%202018%2007:24:46%20GMT	https://www.facebook.com/Kevin-Mitnick-30858851362/photos/?ref=page_internal	www.facebook.com/Kevin-Mitnick-30858851362/photos/index76a2.html	(from https://www.facebook.com/Kevin-Mitnick-30858851362/)
09:24:47	304/304	---M--	200	added ('OK')	image/png	date:Mon,%2001%20Jan%202001%2008:00:00%20GMT	https://static.xx.fbcdn.net/rsrc.php/v3/y5/r/dsGlZIZMa30.png	static.xx.fbcdn.net/rsrc.php/v3/y5/r/dsGlZIZMa30.png	(from https://www.facebook.com/Kevin-Mitnick-30858851362/)
09:24:48	2745292/2745292	---MCZ	200	added ('OK')	text/html	date:Fri,%2019%20Oct%202018%2007:24:47%20GMT	https://www.facebook.com/Kevin-Mitnick-30858851362/posts/?ref=page_internal	www.facebook.com/Kevin-Mitnick-30858851362/posts/index76a2.html	(from https://www.facebook.com/Kevin-Mitnick-30858851362/)
09:24:48	2575149/2575149	---MCZ	200	added ('OK')	text/html	date:Fri,%2019%20Oct%202018%2007:24:48%20GMT	https://www.facebook.com/Kevin-Mitnick-30858851362/notes/?ref=page_internal	www.facebook.com/Kevin-Mitnick-30858851362/notes/index76a2.html	(from https://www.facebook.com/Kevin-Mitnick-30858851362/)
09:24:48	491842/491842	---MCZ	200	added ('OK')	text/html	date:Fri,%2019%20Oct%202018%2007:24:48%20GMT	https://www.facebook.com/Kevin-Mitnick-30858851362/ads/?ref=page_internal	www.facebook.com/Kevin-Mitnick-30858851362/ads/index76a2.html	(from https://www.facebook.com/Kevin-Mitnick-30858851362/)
09:24:49	2545169/2545169	---MCZ	200	added ('OK')	text/html	date:Fri,%2019%20Oct%202018%2007:24:48%20GMT	https://www.facebook.com/Kevin-Mitnick-30858851362/community/?ref=page_internal	www.facebook.com/Kevin-Mitnick-30858851362/community/index76a2.html	(from https://www.facebook.com/Kevin-Mitnick-30858851362/)
09:24:49	273/273	---M--	200	added ('OK')	image/png	date:Mon,%2001%20Jan%202001%2008:00:00%20GMT	https://static.xx.fbcdn.net/rsrc.php/v3/yn/r/VBM6WGsqWSO.png	static.xx.fbcdn.net/rsrc.php/v3/yn/r/VBM6WGsqWSO.png	(from https://www.facebook.com/Kevin-Mitnick-30858851362/)
09:24:50	2556104/2556104	---MCZ	200	added ('OK')	text/html	date:Fri,%2019%20Oct%202018%2007:24:49%20GMT	https://www.facebook.com/Kevin-Mitnick-30858851362/about/	www.facebook.com/Kevin-Mitnick-30858851362/about/index.html	(from https://www.facebook.com/Kevin-Mitnick-30858851362/)
09:24:50	2544540/2544540	---MCZ	200	added ('OK')	text/html	date:Fri,%2019%20Oct%202018%2007:24:49%20GMT	https://www.facebook.com/Kevin-Mitnick-30858851362/community/	www.facebook.com/Kevin-Mitnick-30858851362/community/index.html	(from https://www.facebook.com/Kevin-Mitnick-30858851362/)
09:24:50	200/200	---M--	200	added ('OK')	image/png	date:Mon,%2001%20Jan%202001%2008:00:00%20GMT	https://static.xx.fbcdn.net/rsrc.php/v3/y_/r/On-c9iceH4S.png	static.xx.fbcdn.net/rsrc.php/v3/y_/r/On-c9iceH4S.png	(from https://www.facebook.com/Kevin-Mitnick-30858851362/)
09:24:52	2545080/2545080	---MCZ	200	added ('OK')	text/html	date:Fri,%2019%20Oct%202018%2007:24:51%20GMT	https://www.facebook.com/Kevin-Mitnick-30858851362/likes?ref=page_internal	www.facebook.com/Kevin-Mitnick-30858851362/likes76a2.html	(from https://www.facebook.com/Kevin-Mitnick-30858851362/)
09:24:52	489266/489266	---MCZ	404	error ('Not%20Found')	text/html	date:Fri,%2019%20Oct%202018%2007:24:52%20GMT	https://www.facebook.com/search/str/Public+Figure/keywords_pages/?ref=page_about_category	www.facebook.com/search/str/Public+Figure/keywords_pages/index8c85.html	(from https://www.facebook.com/Kevin-Mitnick-30858851362/)
09:24:53	1893/1893	---M--	200	added ('OK')	image/jpeg	date:Sat,%2009%20Jan%202016%2023:49:07%20GMT	https://scontent-ams3-1.xx.fbcdn.net/v/t1.0-1/c22.0.56.56/p56x56/6167_994710033921379_1223172367477544066_n.jpg?_nc_cat=108&oh=20065d18192d4f7231032d13bd94423e&oe=5C5061B7	scontent-ams3-1.xx.fbcdn.net/v/t1.0-1/c22.0.56.56/p56x56/6167_994710033921379_1223172367477544066_nb537.jpg	(from https://www.facebook.com/Kevin-Mitnick-30858851362/)
09:24:54	1909/1909	---M--	200	added ('OK')	image/jpeg	date:Mon,%2017%20Sep%202018%2012:06:44%20GMT	https://scontent-ams3-1.xx.fbcdn.net/v/t1.0-1/c17.0.56.56/p56x56/17942_225548857961_7798300_n.jpg?_nc_cat=103&oh=34a0ef7f5fe327ce5df9620694ff655f&oe=5C43759C	scontent-ams3-1.xx.fbcdn.net/v/t1.0-1/c17.0.56.56/p56x56/17942_225548857961_7798300_n9b70.jpg	(from https://www.facebook.com/Kevin-Mitnick-30858851362/)
09:24:55	1541/1541	---M--	200	added ('OK')	image/jpeg	date:Tue,%2011%20Jun%202013%2023:33:56%20GMT	https://scontent-ams3-1.xx.fbcdn.net/v/t1.0-1/c14.4.52.52/p60x60/945935_134235520109680_723595404_n.jpg?_nc_cat=101&oh=bd4a9984b6f291dd6eab7587b4e4178c&oe=5C5E703D	scontent-ams3-1.xx.fbcdn.net/v/t1.0-1/c14.4.52.52/p60x60/945935_134235520109680_723595404_n9b3a.jpg	(from https://www.facebook.com/Kevin-Mitnick-30858851362/)
09:24:56	2544698/2544698	---MCZ	200	added ('OK')	text/html	date:Fri,%2019%20Oct%202018%2007:24:52%20GMT	https://www.facebook.com/Kevin-Mitnick-30858851362/likes	www.facebook.com/Kevin-Mitnick-30858851362/likes.html	(from https://www.facebook.com/Kevin-Mitnick-30858851362/)
09:24:56	1682/1682	---M--	200	added ('OK')	image/jpeg	date:Fri,%2019%20Oct%202018%2007:24:56%20GMT	https://scontent-ams3-1.xx.fbcdn.net/v/t1.0-1/c0.14.56.56/p56x56/1919003_336421000313_6238512_n.jpg?_nc_cat=106&oh=80d31b107b1170fca5c9a141048d7eab&oe=5C5710CF	scontent-ams3-1.xx.fbcdn.net/v/t1.0-1/c0.14.56.56/p56x56/1919003_336421000313_6238512_nb42f.jpg	(from https://www.facebook.com/Kevin-Mitnick-30858851362/)
09:24:57	2634797/2634797	---MCZ	200	added ('OK')	text/html	date:Fri,%2019%20Oct%202018%2007:24:54%20GMT	https://www.facebook.com/37hic4l.H4cking/?ref=py_c	www.facebook.com/37hic4l.H4cking/indexb3a1.html	(from https://www.facebook.com/Kevin-Mitnick-30858851362/)
09:24:57	5108/5108	---M--	200	added ('OK')	image/png	date:Sat,%2011%20Feb%202017%2008:47:42%20GMT	https://scontent-ams3-1.xx.fbcdn.net/v/t1.0-1/p56x56/16683933_613762772152831_1754850038664817480_n.png?_nc_cat=105&oh=162283fcf2edfa253c3152e21a962b5e&oe=5C3FBFD9	scontent-ams3-1.xx.fbcdn.net/v/t1.0-1/p56x56/16683933_613762772152831_1754850038664817480_n68f5.png	(from https://www.facebook.com/Kevin-Mitnick-30858851362/)
09:24:58	2634283/2634283	---MCZ	200	added ('OK')	text/html	date:Fri,%2019%20Oct%202018%2007:24:56%20GMT	https://www.facebook.com/Gary-McKinnon-Computer-Hacker-of-All-Time-225547897961/?ref=py_c	www.facebook.com/Gary-McKinnon-Computer-Hacker-of-All-Time-225547897961/indexb3a1.html	(from https://www.facebook.com/Kevin-Mitnick-30858851362/)
09:24:58	1641/1641	---M--	200	added ('OK')	image/jpeg	date:Thu,%2021%20Aug%202014%2022:50:20%20GMT	https://scontent-ams3-1.xx.fbcdn.net/v/t1.0-1/c3.0.56.56/p56x56/10521068_1520101894870124_4991217097177043982_n.jpg?_nc_cat=110&oh=24a09f37683c9ca9ca75d0599d7f89fe&oe=5C4A2880	scontent-ams3-1.xx.fbcdn.net/v/t1.0-1/c3.0.56.56/p56x56/10521068_1520101894870124_4991217097177043982_n5da2.jpg	(from https://www.facebook.com/Kevin-Mitnick-30858851362/)
09:24:59	2628714/2628714	---MCZ	200	added ('OK')	text/html	date:Fri,%2019%20Oct%202018%2007:24:57%20GMT	https://www.facebook.com/ExposingTyrannyinAmerica/?ref=py_c	www.facebook.com/ExposingTyrannyinAmerica/indexb3a1.html	(from https://www.facebook.com/Kevin-Mitnick-30858851362/)
09:24:59	2063/2063	---M--	200	added ('OK')	image/png	date:Tue,%2019%20Sep%202017%2017:07:06%20GMT	https://scontent-ams3-1.xx.fbcdn.net/v/t1.0-1/p56x56/21752240_10156127781223488_806320687959345681_n.png?_nc_cat=106&oh=4e45f59fdc9bb3d4b03b3a074582710d&oe=5C56A993	scontent-ams3-1.xx.fbcdn.net/v/t1.0-1/p56x56/21752240_10156127781223488_806320687959345681_n2dc4.png	(from https://www.facebook.com/Kevin-Mitnick-30858851362/)
09:25:00	2628957/2628957	---MCZ	200	added ('OK')	text/html	date:Fri,%2019%20Oct%202018%2007:24:58%20GMT	https://www.facebook.com/indonesianhackers/?ref=py_c	www.facebook.com/indonesianhackers/indexb3a1.html	(from https://www.facebook.com/Kevin-Mitnick-30858851362/)
09:25:00	1846/1846	---M--	200	added ('OK')	image/jpeg	date:Fri,%2019%20Oct%202018%2007:25:00%20GMT	https://scontent-ams3-1.xx.fbcdn.net/v/t1.0-1/c4.4.52.52/p60x60/198554_10150105428832187_186884_n.jpg?_nc_cat=102&oh=c7721698d330d8e461016dd3c7a70fb6&oe=5C3FA46A	scontent-ams3-1.xx.fbcdn.net/v/t1.0-1/c4.4.52.52/p60x60/198554_10150105428832187_186884_n539c.jpg	(from https://www.facebook.com/Kevin-Mitnick-30858851362/)
09:25:01	2636229/2636229	---MCZ	200	added ('OK')	text/html	date:Fri,%2019%20Oct%202018%2007:24:59%20GMT	https://www.facebook.com/dutalinux/?ref=py_c	www.facebook.com/dutalinux/indexb3a1.html	(from https://www.facebook.com/Kevin-Mitnick-30858851362/)
09:25:01	6718/6718	---M--	200	added ('OK')	image/png	date:Mon,%2027%20Feb%202017%2019:30:23%20GMT	https://scontent-ams3-1.xx.fbcdn.net/v/t1.0-1/p56x56/16998687_1823019007959635_2050736936095430537_n.png?_nc_cat=108&oh=ffd6d18821a4d8ca863d491fa43dec2e&oe=5C5D2EBB	scontent-ams3-1.xx.fbcdn.net/v/t1.0-1/p56x56/16998687_1823019007959635_2050736936095430537_n2831.png	(from https://www.facebook.com/Kevin-Mitnick-30858851362/)
09:25:02	2657637/2657637	---MCZ	200	added ('OK')	text/html	date:Fri,%2019%20Oct%202018%2007:25:00%20GMT	https://www.facebook.com/profseagerexoplanets/?ref=py_c	www.facebook.com/profseagerexoplanets/indexb3a1.html	(from https://www.facebook.com/Kevin-Mitnick-30858851362/)
09:25:02	3947/3947	---M--	200	added ('OK')	image/png	date:Fri,%2003%20Feb%202017%2008:56:58%20GMT	https://scontent-ams3-1.xx.fbcdn.net/v/t1.0-1/p56x56/16299538_1066579703469351_5070501811946985475_n.png?_nc_cat=104&oh=16adcf517a5520f5a028265699ffc84d&oe=5C4ED5FE	scontent-ams3-1.xx.fbcdn.net/v/t1.0-1/p56x56/16299538_1066579703469351_5070501811946985475_nc0be.png	(from https://www.facebook.com/Kevin-Mitnick-30858851362/)
09:25:03	2643371/2643371	---MCZ	200	added ('OK')	text/html	date:Fri,%2019%20Oct%202018%2007:25:01%20GMT	https://www.facebook.com/Technolust/?ref=py_c	www.facebook.com/Technolust/indexb3a1.html	(from https://www.facebook.com/Kevin-Mitnick-30858851362/)
09:25:03	1970/1970	---M--	200	added ('OK')	image/jpeg	date:Tue,%2010%20May%202016%2023:07:51%20GMT	https://scontent-ams3-1.xx.fbcdn.net/v/t1.0-1/p56x56/13151928_10156922540840154_630717980273160556_n.jpg?_nc_cat=104&oh=2e2b27546237538754758201a1e7cc44&oe=5C41719B	scontent-ams3-1.xx.fbcdn.net/v/t1.0-1/p56x56/13151928_10156922540840154_630717980273160556_n3d3a.jpg	(from https://www.facebook.com/Kevin-Mitnick-30858851362/)
09:25:04	2630672/2630672	---MCZ	200	added ('OK')	text/html	date:Fri,%2019%20Oct%202018%2007:25:02%20GMT	https://www.facebook.com/debian/?ref=py_c	www.facebook.com/debian/indexb3a1.html	(from https://www.facebook.com/Kevin-Mitnick-30858851362/)
09:25:04	1864/1864	---M--	200	added ('OK')	image/jpeg	date:Fri,%2016%20Jun%202017%2004:13:12%20GMT	https://scontent-ams3-1.xx.fbcdn.net/v/t1.0-1/p56x56/19113629_10155326220402086_5631800093482297135_n.jpg?_nc_cat=1&oh=ef94ca19390d801e637612ff5514c08e&oe=5C3E73E5	scontent-ams3-1.xx.fbcdn.net/v/t1.0-1/p56x56/19113629_10155326220402086_5631800093482297135_nd8f9.jpg	(from https://www.facebook.com/Kevin-Mitnick-30858851362/)
09:25:05	2660165/2660165	---MCZ	200	added ('OK')	text/html	date:Fri,%2019%20Oct%202018%2007:25:03%20GMT	https://www.facebook.com/EthicalHackerUniversity/?ref=py_c	www.facebook.com/EthicalHackerUniversity/indexb3a1.html	(from https://www.facebook.com/Kevin-Mitnick-30858851362/)
09:25:05	2258/2258	---M--	200	added ('OK')	image/jpeg	date:Wed,%2023%20May%202012%2000:00:00%20GMT	https://scontent-ams3-1.xx.fbcdn.net/v/t1.0-1/p56x56/522848_463316050350878_1843636729_n.jpg?_nc_cat=107&oh=39071f2ff76ca69e8d9e187271f1e914&oe=5C3F0246	scontent-ams3-1.xx.fbcdn.net/v/t1.0-1/p56x56/522848_463316050350878_1843636729_n3d90.jpg	(from https://www.facebook.com/Kevin-Mitnick-30858851362/)
09:25:06	2648451/2648451	---MCZ	200	added ('OK')	text/html	date:Fri,%2019%20Oct%202018%2007:25:05%20GMT	https://www.facebook.com/Black-Hat-Events-107691635153/?ref=py_c	www.facebook.com/Black-Hat-Events-107691635153/indexb3a1.html	(from https://www.facebook.com/Kevin-Mitnick-30858851362/)
09:25:06	2688184/2688184	---MCZ	200	added ('OK')	text/html	date:Fri,%2019%20Oct%202018%2007:25:05%20GMT	https://www.facebook.com/hindistatusforu/?ref=py_c	www.facebook.com/hindistatusforu/indexb3a1.html	(from https://www.facebook.com/Kevin-Mitnick-30858851362/)
09:25:07	2196/2196	---M--	200	added ('OK')	image/jpeg	date:Tue,%2006%20Mar%202018%2023:20:21%20GMT	https://scontent-ams3-1.xx.fbcdn.net/v/t1.0-1/p56x56/28660793_10156137234609941_6181258800727807218_n.jpg?_nc_cat=107&oh=c01b5f1158b96db41bdd5b6f91a26de8&oe=5C40E461	scontent-ams3-1.xx.fbcdn.net/v/t1.0-1/p56x56/28660793_10156137234609941_6181258800727807218_nfe7b.jpg	(from https://www.facebook.com/Kevin-Mitnick-30858851362/)
09:25:08	2683821/2683821	---MCZ	200	added ('OK')	text/html	date:Fri,%2019%20Oct%202018%2007:25:07%20GMT	https://www.facebook.com/Nickelback/	www.facebook.com/Nickelback/index.html	(from https://www.facebook.com/Kevin-Mitnick-30858851362/)
09:25:08	2628104/2628104	---MCZ	200	added ('OK')	text/html	date:Fri,%2019%20Oct%202018%2007:25:08%20GMT	https://www.facebook.com/rdl1011/	www.facebook.com/rdl1011/index.html	(from https://www.facebook.com/Kevin-Mitnick-30858851362/)
09:25:10	633590/633590	---MCZ	200	added ('OK')	text/html	date:Fri,%2019%20Oct%202018%2007:25:05%20GMT	https://www.facebook.com/search/114952118516947/places-in/193705277324704/places/intersect/	www.facebook.com/search/114952118516947/places-in/193705277324704/places/intersect/index.html	(from https://www.facebook.com/Kevin-Mitnick-30858851362/)
09:25:10	494009/494009	---MCZ	200	added ('OK')	text/html	date:Fri,%2019%20Oct%202018%2007:25:09%20GMT	https://www.facebook.com/legal/terms/information_about_page_insights_data	www.facebook.com/legal/terms/information_about_page_insights_data.html	(from https://www.facebook.com/Kevin-Mitnick-30858851362/)
09:25:10	2672062/2672062	---MCZ	200	added ('OK')	text/html	date:Fri,%2019%20Oct%202018%2007:25:09%20GMT	https://www.facebook.com/Federer/	www.facebook.com/Federer/index.html	(from https://www.facebook.com/Kevin-Mitnick-30858851362/)
09:25:11	553841/553841	---MCZ	200	added ('OK')	text/html	date:Fri,%2019%20Oct%202018%2007:25:10%20GMT	https://www.facebook.com/privacy/explanation	www.facebook.com/privacy/explanation.html	(from https://www.facebook.com/Kevin-Mitnick-30858851362/)
09:25:12	500859/500859	---MCZ	200	added ('OK')	text/html	date:Fri,%2019%20Oct%202018%2007:25:11%20GMT	https://www.facebook.com/policies?ref=pf	www.facebook.com/policies30c2.html	(from https://www.facebook.com/Kevin-Mitnick-30858851362/)
09:25:12	0/0	---M--	302	error ('Found')	text/html	date:Fri,%2019%20Oct%202018%2007:25:12%20GMT	https://www.facebook.com/ad_campaign/landing.php?placement=pf_rhc&campaign_id=242449722530626&extra_1=auto	www.facebook.com/ad_campaign/landing62c9.php	(from https://www.facebook.com/Kevin-Mitnick-30858851362/)
09:25:13	0/0	---M--	302	error ('Found')	text/html	date:Fri,%2019%20Oct%202018%2007:25:13%20GMT	https://l.facebook.com/l.php?u=https%3A%2F%2Fwww.facebook.com%2Fadvertising%2F%3Fcampaign_id%3D242449722530626%26placement%3Dpf_rhc%26extra_1%3Dnot-admgr-user&h=AT3IAgMrtY4PppBB--kNqIlK0BBCu9mi79aPi0KTNo3_BSXxAu-Vlch12188YsXBuPzj-wG1s3ViaYo0MtKIjG_0DMbnl_D1zvXfio72l-5sa3Up6_kM6Y2ZBfqc0xS5ZoH18CaRz7_g86hwzvppxoJ3Bl0wGMeycxme	l.facebook.com/l.441257.delayed	(from https://www.facebook.com/Kevin-Mitnick-30858851362/)
09:25:14	0/0	---M--	302	error ('Found')	text/html	date:Fri,%2019%20Oct%202018%2007:25:14%20GMT	https://www.facebook.com/advertising/?campaign_id=242449722530626&placement=pf_rhc&extra_1=not-admgr-user	www.facebook.com/advertising/index362a.html	(from https://www.facebook.com/Kevin-Mitnick-30858851362/)
09:25:15	543303/543303	---MCZ	200	added ('OK')	text/html	date:Fri,%2019%20Oct%202018%2007:25:14%20GMT	https://www.facebook.com/help/568137493302217	www.facebook.com/help/568137493302217.html	(from https://www.facebook.com/Kevin-Mitnick-30858851362/)
09:25:15	0/0	---M--	302	error ('Found')	text/html	date:Fri,%2019%20Oct%202018%2007:25:15%20GMT	https://www.facebook.com/help/cookies?ref_type=sitefooter	www.facebook.com/help/cookiesebd6	(from https://www.facebook.com/Kevin-Mitnick-30858851362/)
09:25:16	48923/48923	---M--	200	added ('OK')	image/jpeg	date:Sat,%2006%20Sep%202014%2010:56:46%20GMT	https://scontent-ams3-1.xx.fbcdn.net/v/t1.0-0/s526x296/10616539_10152271475211363_1728306928710866156_n.jpg?_nc_cat=105&oh=9511b2d6da75320f4d5859e3603c4875&oe=5C55ED5A	scontent-ams3-1.xx.fbcdn.net/v/t1.0-0/s526x296/10616539_10152271475211363_1728306928710866156_n9292.jpg	(from https://www.facebook.com/Kevin-Mitnick-30858851362/)
09:25:17	18255/18255	---M--	200	added ('OK')	image/jpeg	date:Sat,%2006%20Sep%202014%2010:55:54%20GMT	https://scontent-ams3-1.xx.fbcdn.net/v/t1.0-0/s261x260/10626671_10152271474646363_8090598860800970665_n.jpg?_nc_cat=103&oh=c12978aa074f18056b7c5ebcdad858c2&oe=5C87ECAD	scontent-ams3-1.xx.fbcdn.net/v/t1.0-0/s261x260/10626671_10152271474646363_8090598860800970665_n530a.jpg	(from https://www.facebook.com/Kevin-Mitnick-30858851362/)
09:25:18	25875/25875	---M--	200	added ('OK')	image/jpeg	date:Wed,%2015%20Jan%202014%2019:05:04%20GMT	https://scontent-ams3-1.xx.fbcdn.net/v/t1.0-0/p261x260/1526511_10151844916756363_1781171619_n.jpg?_nc_cat=101&oh=665f6a7656f2f156225c5668840c6dab&oe=5C47E03F	scontent-ams3-1.xx.fbcdn.net/v/t1.0-0/p261x260/1526511_10151844916756363_1781171619_n4e52.jpg	(from https://www.facebook.com/Kevin-Mitnick-30858851362/)
09:25:19	508583/508583	---MCZ	200	added ('OK')	text/html	date:Fri,%2019%20Oct%202018%2007:25:16%20GMT	https://www.facebook.com/policies/cookies/	www.facebook.com/policies/cookies/index.html	(from https://www.facebook.com/Kevin-Mitnick-30858851362/)
09:25:19	1383/1383	---M--	200	added ('OK')	image/jpeg	date:Fri,%2019%20Oct%202018%2007:25:19%20GMT	https://scontent-ams3-1.xx.fbcdn.net/v/t1.0-1/p50x50/10400980_30858901362_4927_n.jpg?_nc_cat=102&oh=acd4b1a5fb497d41ed0c3d1a72d1b679&oe=5C89877C	scontent-ams3-1.xx.fbcdn.net/v/t1.0-1/p50x50/10400980_30858901362_4927_nce72.jpg	(from https://www.facebook.com/Kevin-Mitnick-30858851362/)
09:25:20	2415282/2415282	---MCZ	200	added ('OK')	text/html	date:Fri,%2019%20Oct%202018%2007:25:17%20GMT	https://www.facebook.com/30858851362/photos/pb.30858851362.-2207520000.1539933827./10152271475211363/?type=3&eid=ARC_qVJ_fefWdoJmTDkJAGrUtCraykVYRdfuTXb_0XdiwDtMQUYGfYAahf5Oazp_iGB248EqrYqqUkv_	www.facebook.com/30858851362/photos/pb.30858851362.-2207520000.1539933827/10152271475211363/index3176.html	(from https://www.facebook.com/Kevin-Mitnick-30858851362/)
09:25:20	2415961/2415961	---MCZ	200	added ('OK')	text/html	date:Fri,%2019%20Oct%202018%2007:25:18%20GMT	https://www.facebook.com/30858851362/photos/pb.30858851362.-2207520000.1539933827./10152271474646363/?type=3&eid=ARAsi_JC5_in3EhcOOOWANVoHLFVc9nHNi5wRbUByNcJJ8hLmMarMoJ-xAJdV0EQmqT_W8P62po3KxVX	www.facebook.com/30858851362/photos/pb.30858851362.-2207520000.1539933827/10152271474646363/index4436.html	(from https://www.facebook.com/Kevin-Mitnick-30858851362/)
09:25:20	2414640/2414640	---MCZ	200	added ('OK')	text/html	date:Fri,%2019%20Oct%202018%2007:25:19%20GMT	https://www.facebook.com/30858851362/photos/pb.30858851362.-2207520000.1539933827./10151844916756363/?type=3&eid=ARAC1IyyF06tvb5qi4vGP-LsVNmDzyv8PThPktqLlO74MI2h0saRf7Ot2fVJOouOlxdtU5OmcwFM8eV3	www.facebook.com/30858851362/photos/pb.30858851362.-2207520000.1539933827/10151844916756363/indexceff.html	(from https://www.facebook.com/Kevin-Mitnick-30858851362/)
09:25:20	15798/15798	---M--	200	added ('OK')	image/jpeg	date:Sat,%2006%20Sep%202014%2010:55:54%20GMT	https://scontent-ams3-1.xx.fbcdn.net/v/t1.0-0/p240x240/10626671_10152271474646363_8090598860800970665_n.jpg?_nc_cat=103&oh=7ec7e912c7e0ad03c6d48a64c2e16888&oe=5C4F3ABD	scontent-ams3-1.xx.fbcdn.net/v/t1.0-0/p240x240/10626671_10152271474646363_8090598860800970665_n2dc5.jpg	(from https://www.facebook.com/Kevin-Mitnick-30858851362/)
09:25:21	2554409/2554409	---MCZ	200	added ('OK')	text/html	date:Fri,%2019%20Oct%202018%2007:25:21%20GMT	https://www.facebook.com/Kevin-Mitnick-30858851362/photos/	www.facebook.com/Kevin-Mitnick-30858851362/photos/index.html	(from https://www.facebook.com/Kevin-Mitnick-30858851362/)
09:25:21	517467/517467	---MCZ	200	added ('OK')	text/html	date:Fri,%2019%20Oct%202018%2007:25:21%20GMT	https://www.facebook.com/media/set/?set=ms.c.eJwzNDA0NTIyNzQxNzEzMTM2M9YzhIuYGhkaGpsZAwB95QcA.bps.a.10152271474551363&type=1	www.facebook.com/media/set/index7f37.html	(from https://www.facebook.com/Kevin-Mitnick-30858851362/)
09:25:22	36178/36178	---M--	200	added ('OK')	image/jpeg	date:Sat,%2006%20Sep%202014%2010:56:46%20GMT	https://scontent-ams3-1.xx.fbcdn.net/v/t1.0-0/p240x240/10616539_10152271475211363_1728306928710866156_n.jpg?_nc_cat=105&oh=3ee17cc37c960a99db7cc44db3b9c65e&oe=5C523C1C	scontent-ams3-1.xx.fbcdn.net/v/t1.0-0/p240x240/10616539_10152271475211363_1728306928710866156_n9626.jpg	(from https://www.facebook.com/Kevin-Mitnick-30858851362/)
09:25:23	2630823/2630823	---MCZ	200	added ('OK')	text/html	date:Fri,%2019%20Oct%202018%2007:25:21%20GMT	https://www.facebook.com/Kevin-Mitnick-30858851362/?ref=nf&hc_ref=ARQ9CnmnVNQuuYfG1fpDTzdqXlUGEVRoEZrg1c4oyZxj0EC1hmRiPtUhJrYmRT6D37w	www.facebook.com/Kevin-Mitnick-30858851362/indexc327.html	(from https://www.facebook.com/Kevin-Mitnick-30858851362/)
09:25:23	2629849/2629849	---MCZ	200	added ('OK')	text/html	date:Fri,%2019%20Oct%202018%2007:25:21%20GMT	https://www.facebook.com/Kevin-Mitnick-30858851362/?hc_ref=ARRLSalIiK_h1bjpnogPz_eLkyYVyR3vAzqrE35dhE26K7glGTsB-d5EIyqx95xfgDk	www.facebook.com/Kevin-Mitnick-30858851362/indexeffc.html	(from https://www.facebook.com/Kevin-Mitnick-30858851362/)
09:25:23	2418252/2418252	---MCZ	200	added ('OK')	text/html	date:Fri,%2019%20Oct%202018%2007:25:22%20GMT	https://www.facebook.com/30858851362/photos/ms.c.eJwzNDA0NTIyNzQxNzEzMTM2M9YzhIuYGhkaGpsZAwB95QcA.bps.a.10152271474551363/10152271474646363/?type=3&__tn__=HH-R&eid=ARCo78lInAeaEb8hWZ5n6d8v1vma9wbdfb0Y58jurg4zVOuH6Rywdqj9Ty772uK8KdKEbB3gPFw_9xlU	www.facebook.com/30858851362/photos/ms.c.eJwzNDA0NTIyNzQxNzEzMTM2M9YzhIuYGhkaGpsZAwB95QcA.bps.a.10152271474551363/10152271474646363/index4b84.html	(from https://www.facebook.com/Kevin-Mitnick-30858851362/)
09:25:24	22034/22034	---M--	200	added ('OK')	image/jpeg	date:Wed,%2015%20Jan%202014%2019:05:04%20GMT	https://scontent-ams3-1.xx.fbcdn.net/v/t1.0-0/p240x240/1526511_10151844916756363_1781171619_n.jpg?_nc_cat=101&oh=ca27612f998608174bd3b7a4955358ee&oe=5C46C25D	scontent-ams3-1.xx.fbcdn.net/v/t1.0-0/p240x240/1526511_10151844916756363_1781171619_n3f86.jpg	(from https://www.facebook.com/Kevin-Mitnick-30858851362/)
09:25:24	2417442/2417442	---MCZ	200	added ('OK')	text/html	date:Fri,%2019%20Oct%202018%2007:25:23%20GMT	https://www.facebook.com/30858851362/photos/ms.c.eJwzNDA0NTIyNzQxNzEzMTM2M9YzhIuYGhkaGpsZAwB95QcA.bps.a.10152271474551363/10152271475211363/?type=3&__tn__=HH-R&eid=ARDM83Wxff1oCNmCEF-6N6yjWQt-rnulZ9edR0qE-Q9EE-ZqSzhLqUSWYTzj8BcnPDBdy5Ve50FOt3rG	www.facebook.com/30858851362/photos/ms.c.eJwzNDA0NTIyNzQxNzEzMTM2M9YzhIuYGhkaGpsZAwB95QcA.bps.a.10152271474551363/10152271475211363/index3c85.html	(from https://www.facebook.com/Kevin-Mitnick-30858851362/)
09:25:25	2411667/2411667	---MCZ	200	added ('OK')	text/html	date:Fri,%2019%20Oct%202018%2007:25:24%20GMT	https://www.facebook.com/30858851362/photos/a.10151844916956363/10151844916756363/?type=3	www.facebook.com/30858851362/photos/a.10151844916956363/10151844916756363/index513b.html	(from https://www.facebook.com/Kevin-Mitnick-30858851362/)
09:25:25	2629425/2629425	---MCZ	200	added ('OK')	text/html	date:Fri,%2019%20Oct%202018%2007:25:24%20GMT	https://www.facebook.com/Kevin-Mitnick-30858851362/?hc_ref=ARSCK0QHN17dl1eRBzqE32ghD-7U4hsPHIHD5tglfhGGs6U4Ncx5AmhoE2VCpbH5XxA	www.facebook.com/Kevin-Mitnick-30858851362/index3759.html	(from https://www.facebook.com/Kevin-Mitnick-30858851362/)
09:25:25	2630536/2630536	---MCZ	200	added ('OK')	text/html	date:Fri,%2019%20Oct%202018%2007:25:25%20GMT	https://www.facebook.com/Kevin-Mitnick-30858851362/?ref=nf&hc_ref=ARTaDOBmsnPaOcW27HIzzABncu-2cH7VX5fhJuHyxj5XGDswUwy1gHsVfXErvosEm74	www.facebook.com/Kevin-Mitnick-30858851362/index326b.html	(from https://www.facebook.com/Kevin-Mitnick-30858851362/)
09:25:26	2744868/2744868	---MCZ	200	added ('OK')	text/html	date:Fri,%2019%20Oct%202018%2007:25:25%20GMT	https://www.facebook.com/Kevin-Mitnick-30858851362/posts	www.facebook.com/Kevin-Mitnick-30858851362/posts.html	(from https://www.facebook.com/Kevin-Mitnick-30858851362/)
09:25:26	0/0	---M--	302	error ('Found')	text/html	date:Fri,%2019%20Oct%202018%2007:25:26%20GMT	https://facebook.com/security/hsts-pixel.gif?c=3.2.5	facebook.com/security/hsts-pixel.4f88fa.delayed	(from https://www.facebook.com/Kevin-Mitnick-30858851362/)
09:25:27	0/0	---M--	302	error ('Found')	text/html	date:Fri,%2019%20Oct%202018%2007:25:27%20GMT	https://fbcdn.net/security/hsts-pixel.gif?c=2.5	fbcdn.net/security/hsts-pixel.506ede.delayed	(from https://www.facebook.com/Kevin-Mitnick-30858851362/)
09:25:28	0/0	---M--	302	error ('Found')	text/html	date:Fri,%2019%20Oct%202018%2007:25:28%20GMT	https://fbsbx.com/security/hsts-pixel.gif?c=5	fbsbx.com/security/hsts-pixel.516882.delayed	(from https://www.facebook.com/Kevin-Mitnick-30858851362/)
09:25:29	43/43	---M-Z	200	added ('OK')	image/gif	date:Fri,%2019%20Oct%202018%2007:25:29%20GMT	https://connect.facebook.net/security/hsts-pixel.gif	connect.facebook.net/security/hsts-pixel.gif	(from https://www.facebook.com/Kevin-Mitnick-30858851362/)
09:25:30	0/0	---M--	302	error ('Found')	text/html	date:Fri,%2019%20Oct%202018%2007:25:30%20GMT	https://www.facebook.com/Kevin-Mitnick-30858851362/w9ni	www.facebook.com/Kevin-Mitnick-30858851362/w9ni	(from https://www.facebook.com/Kevin-Mitnick-30858851362/)
09:25:31	0/0	---M--	302	error ('Found')	text/html	date:Fri,%2019%20Oct%202018%2007:25:31%20GMT	https://www.facebook.com/Kevin-Mitnick-30858851362/w9ni	www.facebook.com/Kevin-Mitnick-30858851362/w9ni	(from https://www.facebook.com/Kevin-Mitnick-30858851362/)
09:25:32	0/0	---M--	302	error ('Found')	text/html	date:Fri,%2019%20Oct%202018%2007:25:32%20GMT	https://www.facebook.com/Kevin-Mitnick-30858851362/w9ni	www.facebook.com/Kevin-Mitnick-30858851362/w9ni	(from https://www.facebook.com/Kevin-Mitnick-30858851362/)
09:25:33	488770/488770	---MCZ	404	error ('Not%20Found')	text/html	date:Fri,%2019%20Oct%202018%2007:25:33%20GMT	https://www.facebook.com/Kevin-Mitnick-30858851362/K+pf	www.facebook.com/Kevin-Mitnick-30858851362/K+pf	(from https://www.facebook.com/Kevin-Mitnick-30858851362/)
09:25:34	488735/488735	---MCZ	404	error ('Not%20Found')	text/html	date:Fri,%2019%20Oct%202018%2007:25:34%20GMT	https://www.facebook.com/Kevin-Mitnick-30858851362/+5Zy	www.facebook.com/Kevin-Mitnick-30858851362/+5Zy	(from https://www.facebook.com/Kevin-Mitnick-30858851362/)
09:25:35	0/0	---M--	302	error ('Found')	text/html	date:Fri,%2019%20Oct%202018%2007:25:35%20GMT	https://www.facebook.com/Kevin-Mitnick-30858851362/IToy	www.facebook.com/Kevin-Mitnick-30858851362/IToy	(from https://www.facebook.com/Kevin-Mitnick-30858851362/)
09:25:36	488752/488752	---MCZ	404	error ('Not%20Found')	text/html	date:Fri,%2019%20Oct%202018%2007:25:36%20GMT	https://www.facebook.com/Kevin-Mitnick-30858851362/S+p0	www.facebook.com/Kevin-Mitnick-30858851362/S+p0	(from https://www.facebook.com/Kevin-Mitnick-30858851362/)
09:25:37	0/0	---M--	302	error ('Found')	text/html	date:Fri,%2019%20Oct%202018%2007:25:37%20GMT	https://www.facebook.com/Kevin-Mitnick-30858851362/km2J	www.facebook.com/Kevin-Mitnick-30858851362/km2J	(from https://www.facebook.com/Kevin-Mitnick-30858851362/)
09:25:38	0/0	---M--	302	error ('Found')	text/html	date:Fri,%2019%20Oct%202018%2007:25:38%20GMT	https://www.facebook.com/Kevin-Mitnick-30858851362/w9ni	www.facebook.com/Kevin-Mitnick-30858851362/w9ni	(from https://www.facebook.com/Kevin-Mitnick-30858851362/)
09:25:39	0/0	---M--	302	error ('Found')	text/html	date:Fri,%2019%20Oct%202018%2007:25:39%20GMT	https://www.facebook.com/Kevin-Mitnick-30858851362/w9ni	www.facebook.com/Kevin-Mitnick-30858851362/w9ni	(from https://www.facebook.com/Kevin-Mitnick-30858851362/)
09:25:40	0/0	---M--	302	error ('Found')	text/html	date:Fri,%2019%20Oct%202018%2007:25:40%20GMT	https://www.facebook.com/Kevin-Mitnick-30858851362/w9ni	www.facebook.com/Kevin-Mitnick-30858851362/w9ni	(from https://www.facebook.com/Kevin-Mitnick-30858851362/)
09:25:41	0/0	---M--	302	error ('Found')	text/html	date:Fri,%2019%20Oct%202018%2007:25:41%20GMT	https://www.facebook.com/Kevin-Mitnick-30858851362/X	www.facebook.com/Kevin-Mitnick-30858851362/X	(from https://www.facebook.com/Kevin-Mitnick-30858851362/)
09:25:42	0/0	---M--	302	error ('Found')	text/html	date:Fri,%2019%20Oct%202018%2007:25:42%20GMT	https://www.facebook.com/Kevin-Mitnick-30858851362/w9ni	www.facebook.com/Kevin-Mitnick-30858851362/w9ni	(from https://www.facebook.com/Kevin-Mitnick-30858851362/)
09:25:43	0/0	---M--	302	error ('Found')	text/html	date:Fri,%2019%20Oct%202018%2007:25:43%20GMT	https://www.facebook.com/Kevin-Mitnick-30858851362/X	www.facebook.com/Kevin-Mitnick-30858851362/X	(from https://www.facebook.com/Kevin-Mitnick-30858851362/)
09:25:44	0/0	---M--	302	error ('Found')	text/html	date:Fri,%2019%20Oct%202018%2007:25:44%20GMT	https://www.facebook.com/Kevin-Mitnick-30858851362/w9ni	www.facebook.com/Kevin-Mitnick-30858851362/w9ni	(from https://www.facebook.com/Kevin-Mitnick-30858851362/)
09:25:45	0/0	---M--	302	error ('Found')	text/html	date:Fri,%2019%20Oct%202018%2007:25:45%20GMT	https://www.facebook.com/Kevin-Mitnick-30858851362/w9ni	www.facebook.com/Kevin-Mitnick-30858851362/w9ni	(from https://www.facebook.com/Kevin-Mitnick-30858851362/)
09:25:46	0/0	---M--	302	error ('Found')	text/html	date:Fri,%2019%20Oct%202018%2007:25:46%20GMT	https://www.facebook.com/Kevin-Mitnick-30858851362/ss2l	www.facebook.com/Kevin-Mitnick-30858851362/ss2l	(from https://www.facebook.com/Kevin-Mitnick-30858851362/)
09:25:47	0/0	---M--	302	error ('Found')	text/html	date:Fri,%2019%20Oct%202018%2007:25:47%20GMT	https://www.facebook.com/Kevin-Mitnick-30858851362/w9ni	www.facebook.com/Kevin-Mitnick-30858851362/w9ni	(from https://www.facebook.com/Kevin-Mitnick-30858851362/)
09:25:48	0/0	---M--	302	error ('Found')	text/html	date:Fri,%2019%20Oct%202018%2007:25:48%20GMT	https://www.facebook.com/Kevin-Mitnick-30858851362/wShP	www.facebook.com/Kevin-Mitnick-30858851362/wShP	(from https://www.facebook.com/Kevin-Mitnick-30858851362/)
09:25:49	0/0	---M--	302	error ('Found')	text/html	date:Fri,%2019%20Oct%202018%2007:25:49%20GMT	https://www.facebook.com/Kevin-Mitnick-30858851362/w9ni	www.facebook.com/Kevin-Mitnick-30858851362/w9ni	(from https://www.facebook.com/Kevin-Mitnick-30858851362/)
09:25:50	0/0	---M--	302	error ('Found')	text/html	date:Fri,%2019%20Oct%202018%2007:25:50%20GMT	https://www.facebook.com/Kevin-Mitnick-30858851362/ss2l	www.facebook.com/Kevin-Mitnick-30858851362/ss2l	(from https://www.facebook.com/Kevin-Mitnick-30858851362/)
09:25:51	0/0	---M--	302	error ('Found')	text/html	date:Fri,%2019%20Oct%202018%2007:25:51%20GMT	https://www.facebook.com/Kevin-Mitnick-30858851362/w9ni	www.facebook.com/Kevin-Mitnick-30858851362/w9ni	(from https://www.facebook.com/Kevin-Mitnick-30858851362/)
09:25:52	0/0	---M--	302	error ('Found')	text/html	date:Fri,%2019%20Oct%202018%2007:25:52%20GMT	https://www.facebook.com/Kevin-Mitnick-30858851362/ss2l	www.facebook.com/Kevin-Mitnick-30858851362/ss2l	(from https://www.facebook.com/Kevin-Mitnick-30858851362/)
09:25:53	0/0	---M--	302	error ('Found')	text/html	date:Fri,%2019%20Oct%202018%2007:25:53%20GMT	https://www.facebook.com/Kevin-Mitnick-30858851362/w9ni	www.facebook.com/Kevin-Mitnick-30858851362/w9ni	(from https://www.facebook.com/Kevin-Mitnick-30858851362/)
09:25:54	0/0	---M--	302	error ('Found')	text/html	date:Fri,%2019%20Oct%202018%2007:25:54%20GMT	https://www.facebook.com/Kevin-Mitnick-30858851362/X	www.facebook.com/Kevin-Mitnick-30858851362/X	(from https://www.facebook.com/Kevin-Mitnick-30858851362/)
09:25:55	0/0	---M--	302	error ('Found')	text/html	date:Fri,%2019%20Oct%202018%2007:25:55%20GMT	https://www.facebook.com/Kevin-Mitnick-30858851362/w9ni	www.facebook.com/Kevin-Mitnick-30858851362/w9ni	(from https://www.facebook.com/Kevin-Mitnick-30858851362/)
09:25:56	0/0	---M--	302	error ('Found')	text/html	date:Fri,%2019%20Oct%202018%2007:25:56%20GMT	https://www.facebook.com/Kevin-Mitnick-30858851362/w9ni	www.facebook.com/Kevin-Mitnick-30858851362/w9ni	(from https://www.facebook.com/Kevin-Mitnick-30858851362/)
09:25:57	0/0	---M--	302	error ('Found')	text/html	date:Fri,%2019%20Oct%202018%2007:25:57%20GMT	https://www.facebook.com/Kevin-Mitnick-30858851362/w9ni	www.facebook.com/Kevin-Mitnick-30858851362/w9ni	(from https://www.facebook.com/Kevin-Mitnick-30858851362/)
09:25:58	0/0	---M--	302	error ('Found')	text/html	date:Fri,%2019%20Oct%202018%2007:25:58%20GMT	https://www.facebook.com/Kevin-Mitnick-30858851362/AGPC	www.facebook.com/Kevin-Mitnick-30858851362/AGPC	(from https://www.facebook.com/Kevin-Mitnick-30858851362/)
09:25:59	0/0	---M--	302	error ('Found')	text/html	date:Fri,%2019%20Oct%202018%2007:25:59%20GMT	https://www.facebook.com/Kevin-Mitnick-30858851362/w9ni	www.facebook.com/Kevin-Mitnick-30858851362/w9ni	(from https://www.facebook.com/Kevin-Mitnick-30858851362/)
09:26:00	0/0	---M--	302	error ('Found')	text/html	date:Fri,%2019%20Oct%202018%2007:26:00%20GMT	https://www.facebook.com/Kevin-Mitnick-30858851362/w9ni	www.facebook.com/Kevin-Mitnick-30858851362/w9ni	(from https://www.facebook.com/Kevin-Mitnick-30858851362/)
09:26:01	0/0	---M--	302	error ('Found')	text/html	date:Fri,%2019%20Oct%202018%2007:26:01%20GMT	https://www.facebook.com/Kevin-Mitnick-30858851362/w9ni	www.facebook.com/Kevin-Mitnick-30858851362/w9ni	(from https://www.facebook.com/Kevin-Mitnick-30858851362/)
09:26:02	0/0	---M--	302	error ('Found')	text/html	date:Fri,%2019%20Oct%202018%2007:26:02%20GMT	https://www.facebook.com/Kevin-Mitnick-30858851362/w9ni	www.facebook.com/Kevin-Mitnick-30858851362/w9ni	(from https://www.facebook.com/Kevin-Mitnick-30858851362/)
09:26:03	0/0	---M--	302	error ('Found')	text/html	date:Fri,%2019%20Oct%202018%2007:26:03%20GMT	https://www.facebook.com/Kevin-Mitnick-30858851362/w9ni	www.facebook.com/Kevin-Mitnick-30858851362/w9ni	(from https://www.facebook.com/Kevin-Mitnick-30858851362/)
09:26:04	0/0	---M--	302	error ('Found')	text/html	date:Fri,%2019%20Oct%202018%2007:26:04%20GMT	https://www.facebook.com/Kevin-Mitnick-30858851362/uc5g	www.facebook.com/Kevin-Mitnick-30858851362/uc5g	(from https://www.facebook.com/Kevin-Mitnick-30858851362/)
09:26:05	0/0	---M--	302	error ('Found')	text/html	date:Fri,%2019%20Oct%202018%2007:26:05%20GMT	https://www.facebook.com/Kevin-Mitnick-30858851362/w9ni	www.facebook.com/Kevin-Mitnick-30858851362/w9ni	(from https://www.facebook.com/Kevin-Mitnick-30858851362/)
09:26:06	0/0	---M--	302	error ('Found')	text/html	date:Fri,%2019%20Oct%202018%2007:26:06%20GMT	https://www.facebook.com/Kevin-Mitnick-30858851362/w9ni	www.facebook.com/Kevin-Mitnick-30858851362/w9ni	(from https://www.facebook.com/Kevin-Mitnick-30858851362/)
09:26:07	0/0	---M--	302	error ('Found')	text/html	date:Fri,%2019%20Oct%202018%2007:26:07%20GMT	https://www.facebook.com/Kevin-Mitnick-30858851362/w9ni	www.facebook.com/Kevin-Mitnick-30858851362/w9ni	(from https://www.facebook.com/Kevin-Mitnick-30858851362/)
09:26:08	0/0	---M--	302	error ('Found')	text/html	date:Fri,%2019%20Oct%202018%2007:26:08%20GMT	https://www.facebook.com/Kevin-Mitnick-30858851362/w9ni	www.facebook.com/Kevin-Mitnick-30858851362/w9ni	(from https://www.facebook.com/Kevin-Mitnick-30858851362/)
09:26:09	0/0	---M--	302	error ('Found')	text/html	date:Fri,%2019%20Oct%202018%2007:26:09%20GMT	https://www.facebook.com/Kevin-Mitnick-30858851362/w9ni	www.facebook.com/Kevin-Mitnick-30858851362/w9ni	(from https://www.facebook.com/Kevin-Mitnick-30858851362/)
09:26:10	0/0	---M--	302	error ('Found')	text/html	date:Fri,%2019%20Oct%202018%2007:26:10%20GMT	https://www.facebook.com/Kevin-Mitnick-30858851362/w9ni	www.facebook.com/Kevin-Mitnick-30858851362/w9ni	(from https://www.facebook.com/Kevin-Mitnick-30858851362/)
09:26:11	0/0	---M--	302	error ('Found')	text/html	date:Fri,%2019%20Oct%202018%2007:26:11%20GMT	https://www.facebook.com/Kevin-Mitnick-30858851362/w9ni	www.facebook.com/Kevin-Mitnick-30858851362/w9ni	(from https://www.facebook.com/Kevin-Mitnick-30858851362/)
09:26:12	0/0	---M--	302	error ('Found')	text/html	date:Fri,%2019%20Oct%202018%2007:26:12%20GMT	https://www.facebook.com/Kevin-Mitnick-30858851362/w9ni	www.facebook.com/Kevin-Mitnick-30858851362/w9ni	(from https://www.facebook.com/Kevin-Mitnick-30858851362/)
09:26:13	0/0	---M--	302	error ('Found')	text/html	date:Fri,%2019%20Oct%202018%2007:26:13%20GMT	https://www.facebook.com/Kevin-Mitnick-30858851362/X	www.facebook.com/Kevin-Mitnick-30858851362/X	(from https://www.facebook.com/Kevin-Mitnick-30858851362/)
09:26:14	0/0	---M--	302	error ('Found')	text/html	date:Fri,%2019%20Oct%202018%2007:26:14%20GMT	https://www.facebook.com/Kevin-Mitnick-30858851362/w9ni	www.facebook.com/Kevin-Mitnick-30858851362/w9ni	(from https://www.facebook.com/Kevin-Mitnick-30858851362/)
09:26:15	0/0	---M--	302	error ('Found')	text/html	date:Fri,%2019%20Oct%202018%2007:26:15%20GMT	https://www.facebook.com/Kevin-Mitnick-30858851362/w9ni	www.facebook.com/Kevin-Mitnick-30858851362/w9ni	(from https://www.facebook.com/Kevin-Mitnick-30858851362/)
09:26:16	488305/488305	---MCZ	404	error ('Not%20Found')	text/html	date:Fri,%2019%20Oct%202018%2007:26:16%20GMT	https://www.facebook.com/Kevin-Mitnick-30858851362/+MXe	www.facebook.com/Kevin-Mitnick-30858851362/+MXe	(from https://www.facebook.com/Kevin-Mitnick-30858851362/)
09:26:17	0/0	---M--	302	error ('Found')	text/html	date:Fri,%2019%20Oct%202018%2007:26:17%20GMT	https://www.facebook.com/Kevin-Mitnick-30858851362/w9ni	www.facebook.com/Kevin-Mitnick-30858851362/w9ni	(from https://www.facebook.com/Kevin-Mitnick-30858851362/)
09:26:18	488742/488742	---MCZ	404	error ('Not%20Found')	text/html	date:Fri,%2019%20Oct%202018%2007:26:18%20GMT	https://www.facebook.com/Kevin-Mitnick-30858851362/mJj+	www.facebook.com/Kevin-Mitnick-30858851362/mJj+	(from https://www.facebook.com/Kevin-Mitnick-30858851362/)
09:26:19	0/0	---M--	302	error ('Found')	text/html	date:Fri,%2019%20Oct%202018%2007:26:19%20GMT	https://www.facebook.com/Kevin-Mitnick-30858851362/w9ni	www.facebook.com/Kevin-Mitnick-30858851362/w9ni	(from https://www.facebook.com/Kevin-Mitnick-30858851362/)
09:26:20	0/0	---M--	302	error ('Found')	text/html	date:Fri,%2019%20Oct%202018%2007:26:20%20GMT	https://www.facebook.com/Kevin-Mitnick-30858851362/w9ni	www.facebook.com/Kevin-Mitnick-30858851362/w9ni	(from https://www.facebook.com/Kevin-Mitnick-30858851362/)
09:26:21	0/0	---M--	302	error ('Found')	text/html	date:Fri,%2019%20Oct%202018%2007:26:21%20GMT	https://www.facebook.com/Kevin-Mitnick-30858851362/w9ni	www.facebook.com/Kevin-Mitnick-30858851362/w9ni	(from https://www.facebook.com/Kevin-Mitnick-30858851362/)
09:26:22	0/0	---M--	302	error ('Found')	text/html	date:Fri,%2019%20Oct%202018%2007:26:22%20GMT	https://www.facebook.com/Kevin-Mitnick-30858851362/w9ni	www.facebook.com/Kevin-Mitnick-30858851362/w9ni	(from https://www.facebook.com/Kevin-Mitnick-30858851362/)
09:26:23	0/0	---M--	302	error ('Found')	text/html	date:Fri,%2019%20Oct%202018%2007:26:23%20GMT	https://www.facebook.com/Kevin-Mitnick-30858851362/X	www.facebook.com/Kevin-Mitnick-30858851362/X	(from https://www.facebook.com/Kevin-Mitnick-30858851362/)
09:26:24	0/0	---M--	302	error ('Found')	text/html	date:Fri,%2019%20Oct%202018%2007:26:24%20GMT	https://www.facebook.com/Kevin-Mitnick-30858851362/w9ni	www.facebook.com/Kevin-Mitnick-30858851362/w9ni	(from https://www.facebook.com/Kevin-Mitnick-30858851362/)
09:26:25	0/0	---M--	302	error ('Found')	text/html	date:Fri,%2019%20Oct%202018%2007:26:25%20GMT	https://www.facebook.com/Kevin-Mitnick-30858851362/X	www.facebook.com/Kevin-Mitnick-30858851362/X	(from https://www.facebook.com/Kevin-Mitnick-30858851362/)
09:26:26	0/0	---M--	302	error ('Found')	text/html	date:Fri,%2019%20Oct%202018%2007:26:26%20GMT	https://www.facebook.com/Kevin-Mitnick-30858851362/sgpC	www.facebook.com/Kevin-Mitnick-30858851362/sgpC	(from https://www.facebook.com/Kevin-Mitnick-30858851362/)
09:26:27	0/0	---M--	302	error ('Found')	text/html	date:Fri,%2019%20Oct%202018%2007:26:27%20GMT	https://www.facebook.com/Kevin-Mitnick-30858851362/w9ni	www.facebook.com/Kevin-Mitnick-30858851362/w9ni	(from https://www.facebook.com/Kevin-Mitnick-30858851362/)
09:26:28	0/0	---M--	302	error ('Found')	text/html	date:Fri,%2019%20Oct%202018%2007:26:28%20GMT	https://www.facebook.com/Kevin-Mitnick-30858851362/w9ni	www.facebook.com/Kevin-Mitnick-30858851362/w9ni	(from https://www.facebook.com/Kevin-Mitnick-30858851362/)
09:26:29	0/0	---M--	302	error ('Found')	text/html	date:Fri,%2019%20Oct%202018%2007:26:29%20GMT	https://www.facebook.com/Kevin-Mitnick-30858851362/uc5g	www.facebook.com/Kevin-Mitnick-30858851362/uc5g	(from https://www.facebook.com/Kevin-Mitnick-30858851362/)
09:26:30	0/0	---M--	302	error ('Found')	text/html	date:Fri,%2019%20Oct%202018%2007:26:30%20GMT	https://www.facebook.com/Kevin-Mitnick-30858851362/w9ni	www.facebook.com/Kevin-Mitnick-30858851362/w9ni	(from https://www.facebook.com/Kevin-Mitnick-30858851362/)
09:26:31	0/0	---M--	302	error ('Found')	text/html	date:Fri,%2019%20Oct%202018%2007:26:31%20GMT	https://www.facebook.com/Kevin-Mitnick-30858851362/w9ni	www.facebook.com/Kevin-Mitnick-30858851362/w9ni	(from https://www.facebook.com/Kevin-Mitnick-30858851362/)
09:26:32	0/0	---M--	302	error ('Found')	text/html	date:Fri,%2019%20Oct%202018%2007:26:32%20GMT	https://www.facebook.com/Kevin-Mitnick-30858851362/uc5g	www.facebook.com/Kevin-Mitnick-30858851362/uc5g	(from https://www.facebook.com/Kevin-Mitnick-30858851362/)
09:26:33	0/0	---M--	302	error ('Found')	text/html	date:Fri,%2019%20Oct%202018%2007:26:33%20GMT	https://www.facebook.com/Kevin-Mitnick-30858851362/uc5g	www.facebook.com/Kevin-Mitnick-30858851362/uc5g	(from https://www.facebook.com/Kevin-Mitnick-30858851362/)
09:26:34	0/0	---M--	302	error ('Found')	text/html	date:Fri,%2019%20Oct%202018%2007:26:34%20GMT	https://www.facebook.com/Kevin-Mitnick-30858851362/w9ni	www.facebook.com/Kevin-Mitnick-30858851362/w9ni	(from https://www.facebook.com/Kevin-Mitnick-30858851362/)
09:26:35	0/0	---M--	302	error ('Found')	text/html	date:Fri,%2019%20Oct%202018%2007:26:35%20GMT	https://www.facebook.com/Kevin-Mitnick-30858851362/w9ni	www.facebook.com/Kevin-Mitnick-30858851362/w9ni	(from https://www.facebook.com/Kevin-Mitnick-30858851362/)
09:26:36	0/0	---M--	302	error ('Found')	text/html	date:Fri,%2019%20Oct%202018%2007:26:36%20GMT	https://www.facebook.com/Kevin-Mitnick-30858851362/w9ni	www.facebook.com/Kevin-Mitnick-30858851362/w9ni	(from https://www.facebook.com/Kevin-Mitnick-30858851362/)
09:26:37	0/0	---M--	302	error ('Found')	text/html	date:Fri,%2019%20Oct%202018%2007:26:37%20GMT	https://www.facebook.com/Kevin-Mitnick-30858851362/w9ni	www.facebook.com/Kevin-Mitnick-30858851362/w9ni	(from https://www.facebook.com/Kevin-Mitnick-30858851362/)
09:26:38	0/0	---M--	302	error ('Found')	text/html	date:Fri,%2019%20Oct%202018%2007:26:38%20GMT	https://www.facebook.com/Kevin-Mitnick-30858851362/w9ni	www.facebook.com/Kevin-Mitnick-30858851362/w9ni	(from https://www.facebook.com/Kevin-Mitnick-30858851362/)
09:26:39	0/0	---M--	302	error ('Found')	text/html	date:Fri,%2019%20Oct%202018%2007:26:39%20GMT	https://www.facebook.com/Kevin-Mitnick-30858851362/w9ni	www.facebook.com/Kevin-Mitnick-30858851362/w9ni	(from https://www.facebook.com/Kevin-Mitnick-30858851362/)
09:26:40	0/0	---M--	302	error ('Found')	text/html	date:Fri,%2019%20Oct%202018%2007:26:40%20GMT	https://www.facebook.com/Kevin-Mitnick-30858851362/w9ni	www.facebook.com/Kevin-Mitnick-30858851362/w9ni	(from https://www.facebook.com/Kevin-Mitnick-30858851362/)
09:26:41	0/0	---M--	302	error ('Found')	text/html	date:Fri,%2019%20Oct%202018%2007:26:41%20GMT	https://www.facebook.com/Kevin-Mitnick-30858851362/w9ni	www.facebook.com/Kevin-Mitnick-30858851362/w9ni	(from https://www.facebook.com/Kevin-Mitnick-30858851362/)
09:26:42	0/0	---M--	302	error ('Found')	text/html	date:Fri,%2019%20Oct%202018%2007:26:42%20GMT	https://www.facebook.com/Kevin-Mitnick-30858851362/w9ni	www.facebook.com/Kevin-Mitnick-30858851362/w9ni	(from https://www.facebook.com/Kevin-Mitnick-30858851362/)
09:26:43	0/0	---M--	302	error ('Found')	text/html	date:Fri,%2019%20Oct%202018%2007:26:43%20GMT	https://www.facebook.com/Kevin-Mitnick-30858851362/w9ni	www.facebook.com/Kevin-Mitnick-30858851362/w9ni	(from https://www.facebook.com/Kevin-Mitnick-30858851362/)
09:26:44	0/0	---M--	302	error ('Found')	text/html	date:Fri,%2019%20Oct%202018%2007:26:44%20GMT	https://www.facebook.com/Kevin-Mitnick-30858851362/w9ni	www.facebook.com/Kevin-Mitnick-30858851362/w9ni	(from https://www.facebook.com/Kevin-Mitnick-30858851362/)
09:26:45	0/0	---M--	302	error ('Found')	text/html	date:Fri,%2019%20Oct%202018%2007:26:45%20GMT	https://www.facebook.com/Kevin-Mitnick-30858851362/w9ni	www.facebook.com/Kevin-Mitnick-30858851362/w9ni	(from https://www.facebook.com/Kevin-Mitnick-30858851362/)
09:26:46	0/0	---M--	302	error ('Found')	text/html	date:Fri,%2019%20Oct%202018%2007:26:46%20GMT	https://www.facebook.com/Kevin-Mitnick-30858851362/w9ni	www.facebook.com/Kevin-Mitnick-30858851362/w9ni	(from https://www.facebook.com/Kevin-Mitnick-30858851362/)
09:26:47	0/0	---M--	302	error ('Found')	text/html	date:Fri,%2019%20Oct%202018%2007:26:47%20GMT	https://www.facebook.com/Kevin-Mitnick-30858851362/w9ni	www.facebook.com/Kevin-Mitnick-30858851362/w9ni	(from https://www.facebook.com/Kevin-Mitnick-30858851362/)
09:26:48	0/0	---M--	302	error ('Found')	text/html	date:Fri,%2019%20Oct%202018%2007:26:48%20GMT	https://www.facebook.com/Kevin-Mitnick-30858851362/w9ni	www.facebook.com/Kevin-Mitnick-30858851362/w9ni	(from https://www.facebook.com/Kevin-Mitnick-30858851362/)
09:26:49	0/0	---M--	302	error ('Found')	text/html	date:Fri,%2019%20Oct%202018%2007:26:49%20GMT	https://www.facebook.com/Kevin-Mitnick-30858851362/w9ni	www.facebook.com/Kevin-Mitnick-30858851362/w9ni	(from https://www.facebook.com/Kevin-Mitnick-30858851362/)
09:26:50	0/0	---M--	302	error ('Found')	text/html	date:Fri,%2019%20Oct%202018%2007:26:50%20GMT	https://www.facebook.com/Kevin-Mitnick-30858851362/uc5g	www.facebook.com/Kevin-Mitnick-30858851362/uc5g	(from https://www.facebook.com/Kevin-Mitnick-30858851362/)
09:26:51	0/0	---M--	302	error ('Found')	text/html	date:Fri,%2019%20Oct%202018%2007:26:51%20GMT	https://www.facebook.com/Kevin-Mitnick-30858851362/w9ni	www.facebook.com/Kevin-Mitnick-30858851362/w9ni	(from https://www.facebook.com/Kevin-Mitnick-30858851362/)
09:26:52	0/0	---M--	302	error ('Found')	text/html	date:Fri,%2019%20Oct%202018%2007:26:52%20GMT	https://www.facebook.com/Kevin-Mitnick-30858851362/w9ni	www.facebook.com/Kevin-Mitnick-30858851362/w9ni	(from https://www.facebook.com/Kevin-Mitnick-30858851362/)
09:26:53	0/0	---M--	302	error ('Found')	text/html	date:Fri,%2019%20Oct%202018%2007:26:53%20GMT	https://www.facebook.com/Kevin-Mitnick-30858851362/w9ni	www.facebook.com/Kevin-Mitnick-30858851362/w9ni	(from https://www.facebook.com/Kevin-Mitnick-30858851362/)
09:26:54	0/0	---M--	302	error ('Found')	text/html	date:Fri,%2019%20Oct%202018%2007:26:54%20GMT	https://www.facebook.com/Kevin-Mitnick-30858851362/w9ni	www.facebook.com/Kevin-Mitnick-30858851362/w9ni	(from https://www.facebook.com/Kevin-Mitnick-30858851362/)
09:26:55	0/0	---M--	302	error ('Found')	text/html	date:Fri,%2019%20Oct%202018%2007:26:55%20GMT	https://www.facebook.com/Kevin-Mitnick-30858851362/w9ni	www.facebook.com/Kevin-Mitnick-30858851362/w9ni	(from https://www.facebook.com/Kevin-Mitnick-30858851362/)
09:26:56	488294/488294	---MCZ	404	error ('Not%20Found')	text/html	date:Fri,%2019%20Oct%202018%2007:26:56%20GMT	https://www.facebook.com/Kevin-Mitnick-30858851362/+oYB	www.facebook.com/Kevin-Mitnick-30858851362/+oYB	(from https://www.facebook.com/Kevin-Mitnick-30858851362/)
09:26:57	0/0	---M--	302	error ('Found')	text/html	date:Fri,%2019%20Oct%202018%2007:26:57%20GMT	https://www.facebook.com/Kevin-Mitnick-30858851362/uc5g	www.facebook.com/Kevin-Mitnick-30858851362/uc5g	(from https://www.facebook.com/Kevin-Mitnick-30858851362/)
09:26:58	0/0	---M--	302	error ('Found')	text/html	date:Fri,%2019%20Oct%202018%2007:26:58%20GMT	https://www.facebook.com/Kevin-Mitnick-30858851362/w9ni	www.facebook.com/Kevin-Mitnick-30858851362/w9ni	(from https://www.facebook.com/Kevin-Mitnick-30858851362/)
09:26:59	0/0	---M--	302	error ('Found')	text/html	date:Fri,%2019%20Oct%202018%2007:26:59%20GMT	https://www.facebook.com/Kevin-Mitnick-30858851362/w9ni	www.facebook.com/Kevin-Mitnick-30858851362/w9ni	(from https://www.facebook.com/Kevin-Mitnick-30858851362/)
09:27:00	0/0	---M--	302	error ('Found')	text/html	date:Fri,%2019%20Oct%202018%2007:27:00%20GMT	https://www.facebook.com/Kevin-Mitnick-30858851362/w9ni	www.facebook.com/Kevin-Mitnick-30858851362/w9ni	(from https://www.facebook.com/Kevin-Mitnick-30858851362/)
09:27:01	0/0	---M--	302	error ('Found')	text/html	date:Fri,%2019%20Oct%202018%2007:27:01%20GMT	https://www.facebook.com/Kevin-Mitnick-30858851362/w9ni	www.facebook.com/Kevin-Mitnick-30858851362/w9ni	(from https://www.facebook.com/Kevin-Mitnick-30858851362/)
09:27:02	0/0	---M--	302	error ('Found')	text/html	date:Fri,%2019%20Oct%202018%2007:27:02%20GMT	https://www.facebook.com/Kevin-Mitnick-30858851362/w9ni	www.facebook.com/Kevin-Mitnick-30858851362/w9ni	(from https://www.facebook.com/Kevin-Mitnick-30858851362/)
09:27:03	0/0	---M--	302	error ('Found')	text/html	date:Fri,%2019%20Oct%202018%2007:27:03%20GMT	https://www.facebook.com/Kevin-Mitnick-30858851362/w9ni	www.facebook.com/Kevin-Mitnick-30858851362/w9ni	(from https://www.facebook.com/Kevin-Mitnick-30858851362/)
09:27:04	0/0	---M--	302	error ('Found')	text/html	date:Fri,%2019%20Oct%202018%2007:27:04%20GMT	https://www.facebook.com/Kevin-Mitnick-30858851362/uc5g	www.facebook.com/Kevin-Mitnick-30858851362/uc5g	(from https://www.facebook.com/Kevin-Mitnick-30858851362/)
09:27:05	0/0	---M--	302	error ('Found')	text/html	date:Fri,%2019%20Oct%202018%2007:27:05%20GMT	https://www.facebook.com/Kevin-Mitnick-30858851362/w9ni	www.facebook.com/Kevin-Mitnick-30858851362/w9ni	(from https://www.facebook.com/Kevin-Mitnick-30858851362/)
09:27:06	0/0	---M--	302	error ('Found')	text/html	date:Fri,%2019%20Oct%202018%2007:27:06%20GMT	https://www.facebook.com/Kevin-Mitnick-30858851362/uc5g	www.facebook.com/Kevin-Mitnick-30858851362/uc5g	(from https://www.facebook.com/Kevin-Mitnick-30858851362/)
09:27:07	0/0	---M--	302	error ('Found')	text/html	date:Fri,%2019%20Oct%202018%2007:27:07%20GMT	https://www.facebook.com/Kevin-Mitnick-30858851362/w9ni	www.facebook.com/Kevin-Mitnick-30858851362/w9ni	(from https://www.facebook.com/Kevin-Mitnick-30858851362/)
09:27:08	0/0	---M--	302	error ('Found')	text/html	date:Fri,%2019%20Oct%202018%2007:27:08%20GMT	https://www.facebook.com/Kevin-Mitnick-30858851362/uc5g	www.facebook.com/Kevin-Mitnick-30858851362/uc5g	(from https://www.facebook.com/Kevin-Mitnick-30858851362/)
09:27:09	0/0	---M--	302	error ('Found')	text/html	date:Fri,%2019%20Oct%202018%2007:27:09%20GMT	https://www.facebook.com/Kevin-Mitnick-30858851362/w9ni	www.facebook.com/Kevin-Mitnick-30858851362/w9ni	(from https://www.facebook.com/Kevin-Mitnick-30858851362/)
09:27:10	0/0	---M--	302	error ('Found')	text/html	date:Fri,%2019%20Oct%202018%2007:27:10%20GMT	https://www.facebook.com/Kevin-Mitnick-30858851362/w9ni	www.facebook.com/Kevin-Mitnick-30858851362/w9ni	(from https://www.facebook.com/Kevin-Mitnick-30858851362/)
09:27:11	0/0	---M--	302	error ('Found')	text/html	date:Fri,%2019%20Oct%202018%2007:27:11%20GMT	https://www.facebook.com/Kevin-Mitnick-30858851362/w9ni	www.facebook.com/Kevin-Mitnick-30858851362/w9ni	(from https://www.facebook.com/Kevin-Mitnick-30858851362/)
09:27:12	0/0	---M--	302	error ('Found')	text/html	date:Fri,%2019%20Oct%202018%2007:27:12%20GMT	https://www.facebook.com/Kevin-Mitnick-30858851362/w9ni	www.facebook.com/Kevin-Mitnick-30858851362/w9ni	(from https://www.facebook.com/Kevin-Mitnick-30858851362/)
09:27:13	0/0	---M--	302	error ('Found')	text/html	date:Fri,%2019%20Oct%202018%2007:27:13%20GMT	https://www.facebook.com/Kevin-Mitnick-30858851362/89go	www.facebook.com/Kevin-Mitnick-30858851362/89go	(from https://www.facebook.com/Kevin-Mitnick-30858851362/)
09:27:14	0/0	---M--	302	error ('Found')	text/html	date:Fri,%2019%20Oct%202018%2007:27:14%20GMT	https://www.facebook.com/Kevin-Mitnick-30858851362/uc5g	www.facebook.com/Kevin-Mitnick-30858851362/uc5g	(from https://www.facebook.com/Kevin-Mitnick-30858851362/)
09:27:15	0/0	---M--	302	error ('Found')	text/html	date:Fri,%2019%20Oct%202018%2007:27:15%20GMT	https://www.facebook.com/Kevin-Mitnick-30858851362/w9ni	www.facebook.com/Kevin-Mitnick-30858851362/w9ni	(from https://www.facebook.com/Kevin-Mitnick-30858851362/)
09:27:16	0/0	---M--	302	error ('Found')	text/html	date:Fri,%2019%20Oct%202018%2007:27:16%20GMT	https://www.facebook.com/Kevin-Mitnick-30858851362/w9ni	www.facebook.com/Kevin-Mitnick-30858851362/w9ni	(from https://www.facebook.com/Kevin-Mitnick-30858851362/)
09:27:17	0/0	---M--	302	error ('Found')	text/html	date:Fri,%2019%20Oct%202018%2007:27:17%20GMT	https://www.facebook.com/Kevin-Mitnick-30858851362/jYcC	www.facebook.com/Kevin-Mitnick-30858851362/jYcC	(from https://www.facebook.com/Kevin-Mitnick-30858851362/)
09:27:18	0/0	---M--	302	error ('Found')	text/html	date:Fri,%2019%20Oct%202018%2007:27:18%20GMT	https://www.facebook.com/Kevin-Mitnick-30858851362/w9ni	www.facebook.com/Kevin-Mitnick-30858851362/w9ni	(from https://www.facebook.com/Kevin-Mitnick-30858851362/)
09:27:19	0/0	---M--	302	error ('Found')	text/html	date:Fri,%2019%20Oct%202018%2007:27:19%20GMT	https://www.facebook.com/Kevin-Mitnick-30858851362/zXGm	www.facebook.com/Kevin-Mitnick-30858851362/zXGm	(from https://www.facebook.com/Kevin-Mitnick-30858851362/)
09:27:20	0/0	---M--	302	error ('Found')	text/html	date:Fri,%2019%20Oct%202018%2007:27:20%20GMT	https://www.facebook.com/Kevin-Mitnick-30858851362/w9ni	www.facebook.com/Kevin-Mitnick-30858851362/w9ni	(from https://www.facebook.com/Kevin-Mitnick-30858851362/)
09:27:21	0/0	---M--	302	error ('Found')	text/html	date:Fri,%2019%20Oct%202018%2007:27:21%20GMT	https://www.facebook.com/Kevin-Mitnick-30858851362/w9ni	www.facebook.com/Kevin-Mitnick-30858851362/w9ni	(from https://www.facebook.com/Kevin-Mitnick-30858851362/)
09:27:22	0/0	---M--	302	error ('Found')	text/html	date:Fri,%2019%20Oct%202018%2007:27:22%20GMT	https://www.facebook.com/Kevin-Mitnick-30858851362/w9ni	www.facebook.com/Kevin-Mitnick-30858851362/w9ni	(from https://www.facebook.com/Kevin-Mitnick-30858851362/)
09:27:23	0/0	---M--	302	error ('Found')	text/html	date:Fri,%2019%20Oct%202018%2007:27:23%20GMT	https://www.facebook.com/Kevin-Mitnick-30858851362/w9ni	www.facebook.com/Kevin-Mitnick-30858851362/w9ni	(from https://www.facebook.com/Kevin-Mitnick-30858851362/)
09:27:24	0/0	---M--	302	error ('Found')	text/html	date:Fri,%2019%20Oct%202018%2007:27:24%20GMT	https://www.facebook.com/Kevin-Mitnick-30858851362/w9ni	www.facebook.com/Kevin-Mitnick-30858851362/w9ni	(from https://www.facebook.com/Kevin-Mitnick-30858851362/)
09:27:25	0/0	---M--	302	error ('Found')	text/html	date:Fri,%2019%20Oct%202018%2007:27:25%20GMT	https://www.facebook.com/Kevin-Mitnick-30858851362/w9ni	www.facebook.com/Kevin-Mitnick-30858851362/w9ni	(from https://www.facebook.com/Kevin-Mitnick-30858851362/)
09:27:26	0/0	---M--	302	error ('Found')	text/html	date:Fri,%2019%20Oct%202018%2007:27:26%20GMT	https://www.facebook.com/Kevin-Mitnick-30858851362/w9ni	www.facebook.com/Kevin-Mitnick-30858851362/w9ni	(from https://www.facebook.com/Kevin-Mitnick-30858851362/)
09:27:27	0/0	---M--	302	error ('Found')	text/html	date:Fri,%2019%20Oct%202018%2007:27:27%20GMT	https://www.facebook.com/Kevin-Mitnick-30858851362/w9ni	www.facebook.com/Kevin-Mitnick-30858851362/w9ni	(from https://www.facebook.com/Kevin-Mitnick-30858851362/)
09:27:28	0/0	---M--	302	error ('Found')	text/html	date:Fri,%2019%20Oct%202018%2007:27:28%20GMT	https://www.facebook.com/Kevin-Mitnick-30858851362/uc5g	www.facebook.com/Kevin-Mitnick-30858851362/uc5g	(from https://www.facebook.com/Kevin-Mitnick-30858851362/)
09:27:29	0/0	---M--	302	error ('Found')	text/html	date:Fri,%2019%20Oct%202018%2007:27:29%20GMT	https://www.facebook.com/Kevin-Mitnick-30858851362/uc5g	www.facebook.com/Kevin-Mitnick-30858851362/uc5g	(from https://www.facebook.com/Kevin-Mitnick-30858851362/)
09:27:30	0/0	---M--	302	error ('Found')	text/html	date:Fri,%2019%20Oct%202018%2007:27:30%20GMT	https://www.facebook.com/Kevin-Mitnick-30858851362/w9ni	www.facebook.com/Kevin-Mitnick-30858851362/w9ni	(from https://www.facebook.com/Kevin-Mitnick-30858851362/)
09:27:31	0/0	---M--	302	error ('Found')	text/html	date:Fri,%2019%20Oct%202018%2007:27:31%20GMT	https://www.facebook.com/Kevin-Mitnick-30858851362/w9ni	www.facebook.com/Kevin-Mitnick-30858851362/w9ni	(from https://www.facebook.com/Kevin-Mitnick-30858851362/)
09:27:32	0/0	---M--	302	error ('Found')	text/html	date:Fri,%2019%20Oct%202018%2007:27:32%20GMT	https://www.facebook.com/Kevin-Mitnick-30858851362/w9ni	www.facebook.com/Kevin-Mitnick-30858851362/w9ni	(from https://www.facebook.com/Kevin-Mitnick-30858851362/)
09:27:33	0/0	---M--	302	error ('Found')	text/html	date:Fri,%2019%20Oct%202018%2007:27:33%20GMT	https://www.facebook.com/Kevin-Mitnick-30858851362/uc5g	www.facebook.com/Kevin-Mitnick-30858851362/uc5g	(from https://www.facebook.com/Kevin-Mitnick-30858851362/)
09:27:34	0/0	---M--	302	error ('Found')	text/html	date:Fri,%2019%20Oct%202018%2007:27:34%20GMT	https://www.facebook.com/Kevin-Mitnick-30858851362/w9ni	www.facebook.com/Kevin-Mitnick-30858851362/w9ni	(from https://www.facebook.com/Kevin-Mitnick-30858851362/)
09:27:35	0/0	---M--	302	error ('Found')	text/html	date:Fri,%2019%20Oct%202018%2007:27:35%20GMT	https://www.facebook.com/Kevin-Mitnick-30858851362/w9ni	www.facebook.com/Kevin-Mitnick-30858851362/w9ni	(from https://www.facebook.com/Kevin-Mitnick-30858851362/)
09:27:36	0/0	---M--	302	error ('Found')	text/html	date:Fri,%2019%20Oct%202018%2007:27:36%20GMT	https://www.facebook.com/Kevin-Mitnick-30858851362/w9ni	www.facebook.com/Kevin-Mitnick-30858851362/w9ni	(from https://www.facebook.com/Kevin-Mitnick-30858851362/)
09:27:37	0/0	---M--	302	error ('Found')	text/html	date:Fri,%2019%20Oct%202018%2007:27:37%20GMT	https://www.facebook.com/Kevin-Mitnick-30858851362/w9ni	www.facebook.com/Kevin-Mitnick-30858851362/w9ni	(from https://www.facebook.com/Kevin-Mitnick-30858851362/)
09:27:38	0/0	---M--	302	error ('Found')	text/html	date:Fri,%2019%20Oct%202018%2007:27:38%20GMT	https://www.facebook.com/Kevin-Mitnick-30858851362/uc5g	www.facebook.com/Kevin-Mitnick-30858851362/uc5g	(from https://www.facebook.com/Kevin-Mitnick-30858851362/)
09:27:39	0/0	---M--	302	error ('Found')	text/html	date:Fri,%2019%20Oct%202018%2007:27:39%20GMT	https://www.facebook.com/Kevin-Mitnick-30858851362/w9ni	www.facebook.com/Kevin-Mitnick-30858851362/w9ni	(from https://www.facebook.com/Kevin-Mitnick-30858851362/)
09:27:40	0/0	---M--	302	error ('Found')	text/html	date:Fri,%2019%20Oct%202018%2007:27:40%20GMT	https://www.facebook.com/Kevin-Mitnick-30858851362/w9ni	www.facebook.com/Kevin-Mitnick-30858851362/w9ni	(from https://www.facebook.com/Kevin-Mitnick-30858851362/)
09:27:41	0/0	---M--	302	error ('Found')	text/html	date:Fri,%2019%20Oct%202018%2007:27:41%20GMT	https://www.facebook.com/Kevin-Mitnick-30858851362/w9ni	www.facebook.com/Kevin-Mitnick-30858851362/w9ni	(from https://www.facebook.com/Kevin-Mitnick-30858851362/)
09:27:42	0/0	---M--	302	error ('Found')	text/html	date:Fri,%2019%20Oct%202018%2007:27:42%20GMT	https://www.facebook.com/Kevin-Mitnick-30858851362/w9ni	www.facebook.com/Kevin-Mitnick-30858851362/w9ni	(from https://www.facebook.com/Kevin-Mitnick-30858851362/)
09:27:43	0/0	---M--	302	error ('Found')	text/html	date:Fri,%2019%20Oct%202018%2007:27:43%20GMT	https://www.facebook.com/Kevin-Mitnick-30858851362/w9ni	www.facebook.com/Kevin-Mitnick-30858851362/w9ni	(from https://www.facebook.com/Kevin-Mitnick-30858851362/)
09:27:44	0/0	---M--	302	error ('Found')	text/html	date:Fri,%2019%20Oct%202018%2007:27:44%20GMT	https://www.facebook.com/Kevin-Mitnick-30858851362/w9ni	www.facebook.com/Kevin-Mitnick-30858851362/w9ni	(from https://www.facebook.com/Kevin-Mitnick-30858851362/)
09:27:45	0/0	---M--	302	error ('Found')	text/html	date:Fri,%2019%20Oct%202018%2007:27:45%20GMT	https://www.facebook.com/Kevin-Mitnick-30858851362/Y1mx	www.facebook.com/Kevin-Mitnick-30858851362/Y1mx	(from https://www.facebook.com/Kevin-Mitnick-30858851362/)
09:27:46	0/0	---M--	302	error ('Found')	text/html	date:Fri,%2019%20Oct%202018%2007:27:46%20GMT	https://www.facebook.com/Kevin-Mitnick-30858851362/Y1mx	www.facebook.com/Kevin-Mitnick-30858851362/Y1mx	(from https://www.facebook.com/Kevin-Mitnick-30858851362/)
09:27:47	0/0	---M--	302	error ('Found')	text/html	date:Fri,%2019%20Oct%202018%2007:27:47%20GMT	https://www.facebook.com/Kevin-Mitnick-30858851362/w9ni	www.facebook.com/Kevin-Mitnick-30858851362/w9ni	(from https://www.facebook.com/Kevin-Mitnick-30858851362/)
09:27:48	0/0	---M--	302	error ('Found')	text/html	date:Fri,%2019%20Oct%202018%2007:27:48%20GMT	https://www.facebook.com/Kevin-Mitnick-30858851362/w9ni	www.facebook.com/Kevin-Mitnick-30858851362/w9ni	(from https://www.facebook.com/Kevin-Mitnick-30858851362/)
09:27:49	0/0	---M--	302	error ('Found')	text/html	date:Fri,%2019%20Oct%202018%2007:27:49%20GMT	https://www.facebook.com/Kevin-Mitnick-30858851362/w9ni	www.facebook.com/Kevin-Mitnick-30858851362/w9ni	(from https://www.facebook.com/Kevin-Mitnick-30858851362/)
09:27:50	0/0	---M--	302	error ('Found')	text/html	date:Fri,%2019%20Oct%202018%2007:27:50%20GMT	https://www.facebook.com/Kevin-Mitnick-30858851362/QgeU	www.facebook.com/Kevin-Mitnick-30858851362/QgeU	(from https://www.facebook.com/Kevin-Mitnick-30858851362/)
09:27:51	0/0	---M--	302	error ('Found')	text/html	date:Fri,%2019%20Oct%202018%2007:27:51%20GMT	https://www.facebook.com/Kevin-Mitnick-30858851362/xMmC	www.facebook.com/Kevin-Mitnick-30858851362/xMmC	(from https://www.facebook.com/Kevin-Mitnick-30858851362/)
09:27:52	0/0	---M--	302	error ('Found')	text/html	date:Fri,%2019%20Oct%202018%2007:27:52%20GMT	https://www.facebook.com/Kevin-Mitnick-30858851362/Y7D9	www.facebook.com/Kevin-Mitnick-30858851362/Y7D9	(from https://www.facebook.com/Kevin-Mitnick-30858851362/)
09:27:53	488741/488741	---MCZ	404	error ('Not%20Found')	text/html	date:Fri,%2019%20Oct%202018%2007:27:53%20GMT	https://www.facebook.com/Kevin-Mitnick-30858851362/a4U+	www.facebook.com/Kevin-Mitnick-30858851362/a4U+	(from https://www.facebook.com/Kevin-Mitnick-30858851362/)
09:27:54	0/0	---M--	302	error ('Found')	text/html	date:Fri,%2019%20Oct%202018%2007:27:54%20GMT	https://www.facebook.com/Kevin-Mitnick-30858851362/QcgJ	www.facebook.com/Kevin-Mitnick-30858851362/QcgJ	(from https://www.facebook.com/Kevin-Mitnick-30858851362/)
09:27:55	0/0	---M--	302	error ('Found')	text/html	date:Fri,%2019%20Oct%202018%2007:27:55%20GMT	https://www.facebook.com/Kevin-Mitnick-30858851362/S8g3	www.facebook.com/Kevin-Mitnick-30858851362/S8g3	(from https://www.facebook.com/Kevin-Mitnick-30858851362/)
09:27:56	0/0	---M--	302	error ('Found')	text/html	date:Fri,%2019%20Oct%202018%2007:27:56%20GMT	https://www.facebook.com/Kevin-Mitnick-30858851362/wWNc	www.facebook.com/Kevin-Mitnick-30858851362/wWNc	(from https://www.facebook.com/Kevin-Mitnick-30858851362/)
09:27:57	0/0	---M--	302	error ('Found')	text/html	date:Fri,%2019%20Oct%202018%2007:27:57%20GMT	https://www.facebook.com/Kevin-Mitnick-30858851362/8Jb5	www.facebook.com/Kevin-Mitnick-30858851362/8Jb5	(from https://www.facebook.com/Kevin-Mitnick-30858851362/)
09:27:58	0/0	---M--	302	error ('Found')	text/html	date:Fri,%2019%20Oct%202018%2007:27:58%20GMT	https://www.facebook.com/Kevin-Mitnick-30858851362/w9ni	www.facebook.com/Kevin-Mitnick-30858851362/w9ni	(from https://www.facebook.com/Kevin-Mitnick-30858851362/)
09:27:59	0/0	---M--	302	error ('Found')	text/html	date:Fri,%2019%20Oct%202018%2007:27:59%20GMT	https://www.facebook.com/Kevin-Mitnick-30858851362/uc5g	www.facebook.com/Kevin-Mitnick-30858851362/uc5g	(from https://www.facebook.com/Kevin-Mitnick-30858851362/)
09:28:00	0/0	---M--	302	error ('Found')	text/html	date:Fri,%2019%20Oct%202018%2007:28:00%20GMT	https://www.facebook.com/Kevin-Mitnick-30858851362/w9ni	www.facebook.com/Kevin-Mitnick-30858851362/w9ni	(from https://www.facebook.com/Kevin-Mitnick-30858851362/)
09:28:01	0/0	---M--	302	error ('Found')	text/html	date:Fri,%2019%20Oct%202018%2007:28:01%20GMT	https://www.facebook.com/Kevin-Mitnick-30858851362/w9ni	www.facebook.com/Kevin-Mitnick-30858851362/w9ni	(from https://www.facebook.com/Kevin-Mitnick-30858851362/)
09:28:02	0/0	---M--	302	error ('Found')	text/html	date:Fri,%2019%20Oct%202018%2007:28:02%20GMT	https://www.facebook.com/Kevin-Mitnick-30858851362/w9ni	www.facebook.com/Kevin-Mitnick-30858851362/w9ni	(from https://www.facebook.com/Kevin-Mitnick-30858851362/)
09:28:03	0/0	---M--	302	error ('Found')	text/html	date:Fri,%2019%20Oct%202018%2007:28:03%20GMT	https://www.facebook.com/Kevin-Mitnick-30858851362/w9ni	www.facebook.com/Kevin-Mitnick-30858851362/w9ni	(from https://www.facebook.com/Kevin-Mitnick-30858851362/)
09:28:04	0/0	---M--	302	error ('Found')	text/html	date:Fri,%2019%20Oct%202018%2007:28:04%20GMT	https://www.facebook.com/Kevin-Mitnick-30858851362/wWNc	www.facebook.com/Kevin-Mitnick-30858851362/wWNc	(from https://www.facebook.com/Kevin-Mitnick-30858851362/)
09:28:05	0/0	---M--	302	error ('Found')	text/html	date:Fri,%2019%20Oct%202018%2007:28:05%20GMT	https://www.facebook.com/Kevin-Mitnick-30858851362/9PjB	www.facebook.com/Kevin-Mitnick-30858851362/9PjB	(from https://www.facebook.com/Kevin-Mitnick-30858851362/)
09:28:06	0/0	---M--	302	error ('Found')	text/html	date:Fri,%2019%20Oct%202018%2007:28:06%20GMT	https://www.facebook.com/Kevin-Mitnick-30858851362/OSEz	www.facebook.com/Kevin-Mitnick-30858851362/OSEz	(from https://www.facebook.com/Kevin-Mitnick-30858851362/)
09:28:07	0/0	---M--	302	error ('Found')	text/html	date:Fri,%2019%20Oct%202018%2007:28:07%20GMT	https://www.facebook.com/Kevin-Mitnick-30858851362/QgeU	www.facebook.com/Kevin-Mitnick-30858851362/QgeU	(from https://www.facebook.com/Kevin-Mitnick-30858851362/)
09:28:08	0/0	---M--	302	error ('Found')	text/html	date:Fri,%2019%20Oct%202018%2007:28:08%20GMT	https://www.facebook.com/Kevin-Mitnick-30858851362/xMmC	www.facebook.com/Kevin-Mitnick-30858851362/xMmC	(from https://www.facebook.com/Kevin-Mitnick-30858851362/)
09:28:09	0/0	---M--	302	error ('Found')	text/html	date:Fri,%2019%20Oct%202018%2007:28:09%20GMT	https://www.facebook.com/Kevin-Mitnick-30858851362/Y7D9	www.facebook.com/Kevin-Mitnick-30858851362/Y7D9	(from https://www.facebook.com/Kevin-Mitnick-30858851362/)
09:28:10	0/0	---M--	302	error ('Found')	text/html	date:Fri,%2019%20Oct%202018%2007:28:10%20GMT	https://www.facebook.com/Kevin-Mitnick-30858851362/QcgJ	www.facebook.com/Kevin-Mitnick-30858851362/QcgJ	(from https://www.facebook.com/Kevin-Mitnick-30858851362/)
09:28:11	0/0	---M--	302	error ('Found')	text/html	date:Fri,%2019%20Oct%202018%2007:28:11%20GMT	https://www.facebook.com/Kevin-Mitnick-30858851362/S8g3	www.facebook.com/Kevin-Mitnick-30858851362/S8g3	(from https://www.facebook.com/Kevin-Mitnick-30858851362/)
09:28:12	0/0	---M--	302	error ('Found')	text/html	date:Fri,%2019%20Oct%202018%2007:28:12%20GMT	https://www.facebook.com/Kevin-Mitnick-30858851362/s3gR	www.facebook.com/Kevin-Mitnick-30858851362/s3gR	(from https://www.facebook.com/Kevin-Mitnick-30858851362/)
09:28:13	0/0	---M--	302	error ('Found')	text/html	date:Fri,%2019%20Oct%202018%2007:28:13%20GMT	https://www.facebook.com/Kevin-Mitnick-30858851362/I25m	www.facebook.com/Kevin-Mitnick-30858851362/I25m	(from https://www.facebook.com/Kevin-Mitnick-30858851362/)
09:28:14	0/0	---M--	302	error ('Found')	text/html	date:Fri,%2019%20Oct%202018%2007:28:14%20GMT	https://www.facebook.com/Kevin-Mitnick-30858851362/D89k	www.facebook.com/Kevin-Mitnick-30858851362/D89k	(from https://www.facebook.com/Kevin-Mitnick-30858851362/)
09:28:15	0/0	---M--	302	error ('Found')	text/html	date:Fri,%2019%20Oct%202018%2007:28:15%20GMT	https://www.facebook.com/Kevin-Mitnick-30858851362/cQ0Y	www.facebook.com/Kevin-Mitnick-30858851362/cQ0Y	(from https://www.facebook.com/Kevin-Mitnick-30858851362/)
09:28:16	0/0	---M--	302	error ('Found')	text/html	date:Fri,%2019%20Oct%202018%2007:28:16%20GMT	https://www.facebook.com/Kevin-Mitnick-30858851362/8Jb5	www.facebook.com/Kevin-Mitnick-30858851362/8Jb5	(from https://www.facebook.com/Kevin-Mitnick-30858851362/)
09:28:17	0/0	---M--	302	error ('Found')	text/html	date:Fri,%2019%20Oct%202018%2007:28:17%20GMT	https://www.facebook.com/Kevin-Mitnick-30858851362/w9ni	www.facebook.com/Kevin-Mitnick-30858851362/w9ni	(from https://www.facebook.com/Kevin-Mitnick-30858851362/)
09:28:18	0/0	---M--	302	error ('Found')	text/html	date:Fri,%2019%20Oct%202018%2007:28:18%20GMT	https://www.facebook.com/Kevin-Mitnick-30858851362/QgeU	www.facebook.com/Kevin-Mitnick-30858851362/QgeU	(from https://www.facebook.com/Kevin-Mitnick-30858851362/)
09:28:19	0/0	---M--	302	error ('Found')	text/html	date:Fri,%2019%20Oct%202018%2007:28:19%20GMT	https://www.facebook.com/Kevin-Mitnick-30858851362/xMmC	www.facebook.com/Kevin-Mitnick-30858851362/xMmC	(from https://www.facebook.com/Kevin-Mitnick-30858851362/)
09:28:20	0/0	---M--	302	error ('Found')	text/html	date:Fri,%2019%20Oct%202018%2007:28:20%20GMT	https://www.facebook.com/Kevin-Mitnick-30858851362/Y7D9	www.facebook.com/Kevin-Mitnick-30858851362/Y7D9	(from https://www.facebook.com/Kevin-Mitnick-30858851362/)
09:28:21	0/0	---M--	302	error ('Found')	text/html	date:Fri,%2019%20Oct%202018%2007:28:21%20GMT	https://www.facebook.com/Kevin-Mitnick-30858851362/QcgJ	www.facebook.com/Kevin-Mitnick-30858851362/QcgJ	(from https://www.facebook.com/Kevin-Mitnick-30858851362/)
09:28:22	0/0	---M--	302	error ('Found')	text/html	date:Fri,%2019%20Oct%202018%2007:28:22%20GMT	https://www.facebook.com/Kevin-Mitnick-30858851362/S8g3	www.facebook.com/Kevin-Mitnick-30858851362/S8g3	(from https://www.facebook.com/Kevin-Mitnick-30858851362/)
09:28:23	0/0	---M--	302	error ('Found')	text/html	date:Fri,%2019%20Oct%202018%2007:28:23%20GMT	https://www.facebook.com/Kevin-Mitnick-30858851362/wWNc	www.facebook.com/Kevin-Mitnick-30858851362/wWNc	(from https://www.facebook.com/Kevin-Mitnick-30858851362/)
09:28:24	0/0	---M--	302	error ('Found')	text/html	date:Fri,%2019%20Oct%202018%2007:28:24%20GMT	https://www.facebook.com/Kevin-Mitnick-30858851362/s3gR	www.facebook.com/Kevin-Mitnick-30858851362/s3gR	(from https://www.facebook.com/Kevin-Mitnick-30858851362/)
09:28:25	0/0	---M--	302	error ('Found')	text/html	date:Fri,%2019%20Oct%202018%2007:28:25%20GMT	https://www.facebook.com/Kevin-Mitnick-30858851362/8Jb5	www.facebook.com/Kevin-Mitnick-30858851362/8Jb5	(from https://www.facebook.com/Kevin-Mitnick-30858851362/)
09:28:26	0/0	---M--	302	error ('Found')	text/html	date:Fri,%2019%20Oct%202018%2007:28:26%20GMT	https://www.facebook.com/Kevin-Mitnick-30858851362/w9ni	www.facebook.com/Kevin-Mitnick-30858851362/w9ni	(from https://www.facebook.com/Kevin-Mitnick-30858851362/)
09:28:27	0/0	---M--	302	error ('Found')	text/html	date:Fri,%2019%20Oct%202018%2007:28:27%20GMT	https://www.facebook.com/Kevin-Mitnick-30858851362/QgeU	www.facebook.com/Kevin-Mitnick-30858851362/QgeU	(from https://www.facebook.com/Kevin-Mitnick-30858851362/)
09:28:28	0/0	---M--	302	error ('Found')	text/html	date:Fri,%2019%20Oct%202018%2007:28:28%20GMT	https://www.facebook.com/Kevin-Mitnick-30858851362/xMmC	www.facebook.com/Kevin-Mitnick-30858851362/xMmC	(from https://www.facebook.com/Kevin-Mitnick-30858851362/)
09:28:29	0/0	---M--	302	error ('Found')	text/html	date:Fri,%2019%20Oct%202018%2007:28:29%20GMT	https://www.facebook.com/Kevin-Mitnick-30858851362/Y7D9	www.facebook.com/Kevin-Mitnick-30858851362/Y7D9	(from https://www.facebook.com/Kevin-Mitnick-30858851362/)
09:28:30	0/0	---M--	302	error ('Found')	text/html	date:Fri,%2019%20Oct%202018%2007:28:30%20GMT	https://www.facebook.com/Kevin-Mitnick-30858851362/QcgJ	www.facebook.com/Kevin-Mitnick-30858851362/QcgJ	(from https://www.facebook.com/Kevin-Mitnick-30858851362/)
09:28:31	0/0	---M--	302	error ('Found')	text/html	date:Fri,%2019%20Oct%202018%2007:28:31%20GMT	https://www.facebook.com/Kevin-Mitnick-30858851362/S8g3	www.facebook.com/Kevin-Mitnick-30858851362/S8g3	(from https://www.facebook.com/Kevin-Mitnick-30858851362/)
09:28:32	0/0	---M--	302	error ('Found')	text/html	date:Fri,%2019%20Oct%202018%2007:28:32%20GMT	https://www.facebook.com/Kevin-Mitnick-30858851362/wWNc	www.facebook.com/Kevin-Mitnick-30858851362/wWNc	(from https://www.facebook.com/Kevin-Mitnick-30858851362/)
09:28:33	0/0	---M--	302	error ('Found')	text/html	date:Fri,%2019%20Oct%202018%2007:28:33%20GMT	https://www.facebook.com/Kevin-Mitnick-30858851362/s3gR	www.facebook.com/Kevin-Mitnick-30858851362/s3gR	(from https://www.facebook.com/Kevin-Mitnick-30858851362/)
09:28:34	0/0	---M--	302	error ('Found')	text/html	date:Fri,%2019%20Oct%202018%2007:28:34%20GMT	https://www.facebook.com/Kevin-Mitnick-30858851362/8Jb5	www.facebook.com/Kevin-Mitnick-30858851362/8Jb5	(from https://www.facebook.com/Kevin-Mitnick-30858851362/)
09:28:35	0/0	---M--	302	error ('Found')	text/html	date:Fri,%2019%20Oct%202018%2007:28:35%20GMT	https://www.facebook.com/Kevin-Mitnick-30858851362/w9ni	www.facebook.com/Kevin-Mitnick-30858851362/w9ni	(from https://www.facebook.com/Kevin-Mitnick-30858851362/)
09:28:36	0/0	---M--	302	error ('Found')	text/html	date:Fri,%2019%20Oct%202018%2007:28:36%20GMT	https://www.facebook.com/Kevin-Mitnick-30858851362/vojT	www.facebook.com/Kevin-Mitnick-30858851362/vojT	(from https://www.facebook.com/Kevin-Mitnick-30858851362/)
09:28:37	0/0	---M--	302	error ('Found')	text/html	date:Fri,%2019%20Oct%202018%2007:28:37%20GMT	https://www.facebook.com/Kevin-Mitnick-30858851362/Y1mx	www.facebook.com/Kevin-Mitnick-30858851362/Y1mx	(from https://www.facebook.com/Kevin-Mitnick-30858851362/)
09:28:38	0/0	---M--	302	error ('Found')	text/html	date:Fri,%2019%20Oct%202018%2007:28:38%20GMT	https://www.facebook.com/Kevin-Mitnick-30858851362/37wM	www.facebook.com/Kevin-Mitnick-30858851362/37wM	(from https://www.facebook.com/Kevin-Mitnick-30858851362/)
09:28:39	0/0	---M--	302	error ('Found')	text/html	date:Fri,%2019%20Oct%202018%2007:28:39%20GMT	https://www.facebook.com/Kevin-Mitnick-30858851362/w9ni	www.facebook.com/Kevin-Mitnick-30858851362/w9ni	(from https://www.facebook.com/Kevin-Mitnick-30858851362/)
09:28:40	0/0	---M--	302	error ('Found')	text/html	date:Fri,%2019%20Oct%202018%2007:28:40%20GMT	https://www.facebook.com/Kevin-Mitnick-30858851362/QgeU	www.facebook.com/Kevin-Mitnick-30858851362/QgeU	(from https://www.facebook.com/Kevin-Mitnick-30858851362/)
09:28:41	0/0	---M--	302	error ('Found')	text/html	date:Fri,%2019%20Oct%202018%2007:28:41%20GMT	https://www.facebook.com/Kevin-Mitnick-30858851362/xMmC	www.facebook.com/Kevin-Mitnick-30858851362/xMmC	(from https://www.facebook.com/Kevin-Mitnick-30858851362/)
09:28:42	0/0	---M--	302	error ('Found')	text/html	date:Fri,%2019%20Oct%202018%2007:28:42%20GMT	https://www.facebook.com/Kevin-Mitnick-30858851362/Y7D9	www.facebook.com/Kevin-Mitnick-30858851362/Y7D9	(from https://www.facebook.com/Kevin-Mitnick-30858851362/)
